^C:\USERS\ASUS-WIN10-PRO\SOURCE\KLAUSURAUFGABEN\AUFGABE1\MAIN.CPP
C:\USERS\ASUS-WIN10-PRO\SOURCE\KLAUSURAUFGABEN\AUFGABE1\DEBUG\VC141.PDB
C:\USERS\ASUS-WIN10-PRO\SOURCE\KLAUSURAUFGABEN\AUFGABE1\DEBUG\VC141.IDB
C:\USERS\ASUS-WIN10-PRO\SOURCE\KLAUSURAUFGABEN\AUFGABE1\DEBUG\MAIN.OBJ
