^C:\USERS\ASUS-WIN10-PRO\SOURCE\BEISPIELE\KAP0809_1\ABSTRAKTE-KLASSE\ABSTRAKTE-KLASSE.CPP
C:\USERS\ASUS-WIN10-PRO\SOURCE\BEISPIELE\KAP0809_1\ABSTRAKTE-KLASSE\DEBUG\VC141.PDB
C:\USERS\ASUS-WIN10-PRO\SOURCE\BEISPIELE\KAP0809_1\ABSTRAKTE-KLASSE\DEBUG\VC141.IDB
C:\USERS\ASUS-WIN10-PRO\SOURCE\BEISPIELE\KAP0809_1\ABSTRAKTE-KLASSE\DEBUG\ABSTRAKTE-KLASSE.OBJ
