^C:\USERS\ASUS-WIN10-PRO\SOURCE\BEISPIELE\KAP0809_1\ABSTRAKTE-KLASSE\DEBUG\ABSTRAKTE-KLASSE.OBJ
C:\USERS\ASUS-WIN10-PRO\SOURCE\BEISPIELE\KAP0809_1\DEBUG\09-ABSTRAKTE-KLASSE.ILK
C:\USERS\ASUS-WIN10-PRO\SOURCE\BEISPIELE\KAP0809_1\DEBUG\09-ABSTRAKTE-KLASSE.EXE
C:\USERS\ASUS-WIN10-PRO\SOURCE\BEISPIELE\KAP0809_1\DEBUG\09-ABSTRAKTE-KLASSE.PDB
