^C:\FH\LEHRE\WS13-14\PROGRAMMIEREN 3\LÖSUNGEN\WOCHE10\AUFGABE55-FAKULTAET\DEBUG\FAKULTAET.OBJ
C:\FH\LEHRE\WS13-14\PROGRAMMIEREN 3\LöSUNGEN\WOCHE10\DEBUG\AUFGABE55-FAKULTAET.ILK
C:\FH\LEHRE\WS13-14\PROGRAMMIEREN 3\LöSUNGEN\WOCHE10\DEBUG\AUFGABE55-FAKULTAET.EXE
C:\FH\LEHRE\WS13-14\PROGRAMMIEREN 3\LÖSUNGEN\WOCHE10\DEBUG\AUFGABE55-FAKULTAET.PDB
