^C:\FH\LEHRE\WS14-15\PROGRAMMIEREN-3\BEISPIELE\KAP10\FUNKTIONENTEMPLATES\FUNKTEMPL.CPP
C:\FH\LEHRE\WS14-15\PROGRAMMIEREN-3\BEISPIELE\KAP10\FUNKTIONENTEMPLATES\DEBUG\VC120.PDB
C:\FH\LEHRE\WS14-15\PROGRAMMIEREN-3\BEISPIELE\KAP10\FUNKTIONENTEMPLATES\DEBUG\VC120.IDB
C:\FH\LEHRE\WS14-15\PROGRAMMIEREN-3\BEISPIELE\KAP10\FUNKTIONENTEMPLATES\DEBUG\FUNKTEMPL.OBJ
