^C:\FH\LEHRE\WS14-15\PROGRAMMIEREN-3\BEISPIELE\KAP12\10_DOUBLEINDEX\NEGATIVINDEX.CPP
C:\FH\LEHRE\WS14-15\PROGRAMMIEREN-3\BEISPIELE\KAP12\10_DOUBLEINDEX\DEBUG\VC120.PDB
C:\FH\LEHRE\WS14-15\PROGRAMMIEREN-3\BEISPIELE\KAP12\10_DOUBLEINDEX\DEBUG\VC120.IDB
C:\FH\LEHRE\WS14-15\PROGRAMMIEREN-3\BEISPIELE\KAP12\10_DOUBLEINDEX\DEBUG\NEGATIVINDEX.OBJ
