^C:\FH\LEHRE\WS14-15\PROGRAMMIEREN-3\BEISPIELE\KAP13_14\ASSERT\DEBUG\MAIN.OBJ
C:\FH\LEHRE\WS14-15\PROGRAMMIEREN-3\BEISPIELE\KAP13_14\DEBUG\03_ASSERT.ILK
C:\FH\LEHRE\WS14-15\PROGRAMMIEREN-3\BEISPIELE\KAP13_14\DEBUG\03_ASSERT.EXE
C:\FH\LEHRE\WS14-15\PROGRAMMIEREN-3\BEISPIELE\KAP13_14\DEBUG\03_ASSERT.PDB
