^C:\USERS\ASUS-WIN10-PRO\SOURCE\REPOS\CPPPROJECT\MAIN.CPP\EMPLOYEE.CPP|C:\USERS\ASUS-WIN10-PRO\SOURCE\REPOS\CPPPROJECT\MAIN.CPP\MAIN.CPP
C:\USERS\ASUS-WIN10-PRO\SOURCE\REPOS\CPPPROJECT\MAIN.CPP\DEBUG\VC141.PDB
C:\USERS\ASUS-WIN10-PRO\SOURCE\REPOS\CPPPROJECT\MAIN.CPP\DEBUG\VC141.IDB
C:\USERS\ASUS-WIN10-PRO\SOURCE\REPOS\CPPPROJECT\MAIN.CPP\DEBUG\EMPLOYEE.OBJ
^C:\USERS\ASUS-WIN10-PRO\SOURCE\REPOS\CPPPROJECT\MAIN.CPP\EMPLOYEE.CPP
C:\USERS\ASUS-WIN10-PRO\SOURCE\REPOS\CPPPROJECT\MAIN.CPP\DEBUG\VC141.PDB
C:\USERS\ASUS-WIN10-PRO\SOURCE\REPOS\CPPPROJECT\MAIN.CPP\DEBUG\VC141.IDB
C:\USERS\ASUS-WIN10-PRO\SOURCE\REPOS\CPPPROJECT\MAIN.CPP\DEBUG\EMPLOYEE.OBJ
^C:\USERS\ASUS-WIN10-PRO\SOURCE\REPOS\CPPPROJECT\MAIN.CPP\MAIN.CPP
C:\USERS\ASUS-WIN10-PRO\SOURCE\REPOS\CPPPROJECT\MAIN.CPP\DEBUG\VC141.PDB
C:\USERS\ASUS-WIN10-PRO\SOURCE\REPOS\CPPPROJECT\MAIN.CPP\DEBUG\VC141.IDB
C:\USERS\ASUS-WIN10-PRO\SOURCE\REPOS\CPPPROJECT\MAIN.CPP\DEBUG\MAIN.OBJ
