^C:\FH\LEHRE\WS12-13\PROGRAMMIEREN 3\BEISPIELE\KAP11\ARRAY\DEBUG\ARRAY.OBJ
C:\FH\LEHRE\WS12-13\PROGRAMMIEREN 3\BEISPIELE\KAP11\DEBUG\04_ARRAY.ILK
C:\FH\LEHRE\WS12-13\PROGRAMMIEREN 3\BEISPIELE\KAP11\DEBUG\04_ARRAY.EXE
C:\FH\LEHRE\WS12-13\PROGRAMMIEREN 3\BEISPIELE\KAP11\DEBUG\04_ARRAY.PDB
