^C:\USERS\ASUS-WIN10-PRO\SOURCE\FORTGESCHRITTENE PROGRAMMIERUNG\AUFGABE9\DEBUG\MAIN.OBJ
C:\USERS\ASUS-WIN10-PRO\SOURCE\FORTGESCHRITTENE PROGRAMMIERUNG\DEBUG\AUFGABE9.EXE
C:\USERS\ASUS-WIN10-PRO\SOURCE\FORTGESCHRITTENE PROGRAMMIERUNG\DEBUG\AUFGABE9.ILK
C:\USERS\ASUS-WIN10-PRO\SOURCE\FORTGESCHRITTENE PROGRAMMIERUNG\DEBUG\AUFGABE9.PDB
