^C:\FH\LEHRE\WS14-15\PROGRAMMIEREN-3\LÖSUNGEN\WOCHE08\AUFGABE45-LISTE\DEBUG\AUFGABE45.OBJ
/OUT:"C:\FH\LEHRE\WS14-15\PROGRAMMIEREN-3\LÖSUNGEN\WOCHE08\DEBUG\AUFGABE45-LISTE.EXE" /INCREMENTAL /NOLOGO kernel32.lib user32.lib gdi32.lib winspool.lib comdlg32.lib advapi32.lib shell32.lib ole32.lib oleaut32.lib uuid.lib odbc32.lib odbccp32.lib /MANIFEST /MANIFESTUAC:"level='asInvoker' uiAccess='false'" /manifest:embed /DEBUG /PDB:"C:\FH\LEHRE\WS14-15\PROGRAMMIEREN-3\LÖSUNGEN\WOCHE08\DEBUG\AUFGABE45-LISTE.PDB" /SUBSYSTEM:CONSOLE /TLBID:1 /DYNAMICBASE /NXCOMPAT /IMPLIB:"C:\FH\LEHRE\WS14-15\PROGRAMMIEREN-3\LÖSUNGEN\WOCHE08\DEBUG\AUFGABE45-LISTE.LIB" /MACHINE:X86 DEBUG\AUFGABE45.OBJ
^C:\FH\LEHRE\WS15-16\PROGRAMMIEREN 3\LÖSUNGEN\WOCHE08\AUFGABE45-LISTE\DEBUG\AUFGABE45.OBJ
/OUT:"C:\FH\LEHRE\WS15-16\PROGRAMMIEREN 3\LÖSUNGEN\WOCHE08\DEBUG\AUFGABE45-LISTE.EXE" /INCREMENTAL /NOLOGO KERNEL32.LIB USER32.LIB GDI32.LIB WINSPOOL.LIB COMDLG32.LIB ADVAPI32.LIB SHELL32.LIB OLE32.LIB OLEAUT32.LIB UUID.LIB ODBC32.LIB ODBCCP32.LIB /MANIFEST /MANIFESTUAC:"level='asInvoker' uiAccess='false'" /manifest:embed /Debug /PDB:"C:\FH\LEHRE\WS15-16\PROGRAMMIEREN 3\LÖSUNGEN\WOCHE08\DEBUG\AUFGABE45-LISTE.PDB" /SUBSYSTEM:CONSOLE /TLBID:1 /DYNAMICBASE /NXCOMPAT /IMPLIB:"C:\FH\LEHRE\WS15-16\PROGRAMMIEREN 3\LÖSUNGEN\WOCHE08\DEBUG\AUFGABE45-LISTE.LIB" /MACHINE:X86 DEBUG\AUFGABE45.OBJ
^C:\FH\LEHRE\WS16-17\PROGRAMMIEREN 3\LÖSUNGEN\WOCHE08\AUFGABE45-LISTE\DEBUG\AUFGABE45.OBJ
/OUT:"C:\FH\LEHRE\WS16-17\PROGRAMMIEREN 3\LÖSUNGEN\WOCHE08\DEBUG\AUFGABE45-LISTE.EXE" /INCREMENTAL /NOLOGO KERNEL32.LIB USER32.LIB GDI32.LIB WINSPOOL.LIB COMDLG32.LIB ADVAPI32.LIB SHELL32.LIB OLE32.LIB OLEAUT32.LIB UUID.LIB ODBC32.LIB ODBCCP32.LIB /MANIFEST /MANIFESTUAC:"level='asInvoker' uiAccess='false'" /manifest:embed /DEBUG /PDB:"C:\FH\LEHRE\WS16-17\PROGRAMMIEREN 3\LÖSUNGEN\WOCHE08\DEBUG\AUFGABE45-LISTE.PDB" /SUBSYSTEM:CONSOLE /TLBID:1 /DYNAMICBASE /NXCOMPAT /IMPLIB:"C:\FH\LEHRE\WS16-17\PROGRAMMIEREN 3\LÖSUNGEN\WOCHE08\DEBUG\AUFGABE45-LISTE.LIB" /MACHINE:X86 DEBUG\AUFGABE45.OBJ
^C:\FH\LEHRE\WS17-18\PROGRAMMIEREN3\LÖSUNGEN\WOCHE08\AUFGABE45-LISTE\DEBUG\AUFGABE45.OBJ
/OUT:"C:\FH\LEHRE\WS17-18\PROGRAMMIEREN3\LÖSUNGEN\WOCHE08\DEBUG\AUFGABE45-LISTE.EXE" /INCREMENTAL /NOLOGO KERNEL32.LIB USER32.LIB GDI32.LIB WINSPOOL.LIB COMDLG32.LIB ADVAPI32.LIB SHELL32.LIB OLE32.LIB OLEAUT32.LIB UUID.LIB ODBC32.LIB ODBCCP32.LIB /MANIFEST /MANIFESTUAC:"level='asInvoker' uiAccess='false'" /manifest:embed /DEBUG:FASTLINK /PDB:"C:\FH\LEHRE\WS17-18\PROGRAMMIEREN3\LÖSUNGEN\WOCHE08\DEBUG\AUFGABE45-LISTE.PDB" /SUBSYSTEM:CONSOLE /TLBID:1 /DYNAMICBASE /NXCOMPAT /IMPLIB:"C:\FH\LEHRE\WS17-18\PROGRAMMIEREN3\LÖSUNGEN\WOCHE08\DEBUG\AUFGABE45-LISTE.LIB" /MACHINE:X86 DEBUG\AUFGABE45.OBJ
