^C:\FH\LEHRE\WS10-11\PROGRAMMIEREN 3\BEISPIELE\KAP0607\KREIS\DEBUG\KREIS.EXE.EMBED.MANIFEST.RES|C:\FH\LEHRE\WS10-11\PROGRAMMIEREN 3\BEISPIELE\KAP0607\KREIS\DEBUG\MAIN.OBJ
/ERRORREPORT:PROMPT /OUT:"C:\FH\Lehre\WS10-11\Programmieren 3\Beispiele\Kap0607\Debug\Kreis.exe" /INCREMENTAL /NOLOGO kernel32.lib user32.lib gdi32.lib winspool.lib comdlg32.lib advapi32.lib shell32.lib ole32.lib oleaut32.lib uuid.lib odbc32.lib odbccp32.lib /MANIFEST /ManifestFile:"Debug\Kreis.exe.intermediate.manifest" /MANIFESTUAC:"level='asInvoker' uiAccess='false'" /DEBUG /PDB:"C:\FH\Lehre\WS10-11\Programmieren 3\Beispiele\Kap0607\Debug\Kreis.pdb" /SUBSYSTEM:CONSOLE /TLBID:1 /DYNAMICBASE /NXCOMPAT /IMPLIB:"C:\FH\Lehre\WS10-11\Programmieren 3\Beispiele\Kap0607\Debug\Kreis.lib" /MACHINE:X86 Debug\Kreis.exe.embed.manifest.res
Debug\main.obj
^C:\FH\LEHRE\WS11-12\PROGRAMMIEREN 3\BEISPIELE\KAP0607\KREIS\DEBUG\KREIS.EXE.EMBED.MANIFEST.RES|C:\FH\LEHRE\WS11-12\PROGRAMMIEREN 3\BEISPIELE\KAP0607\KREIS\DEBUG\MAIN.OBJ
/ERRORREPORT:PROMPT /OUT:"C:\FH\Lehre\WS11-12\Programmieren 3\Beispiele\Kap0607\Debug\Kreis.exe" /INCREMENTAL /NOLOGO kernel32.lib user32.lib gdi32.lib winspool.lib comdlg32.lib advapi32.lib shell32.lib ole32.lib oleaut32.lib uuid.lib odbc32.lib odbccp32.lib /MANIFEST /ManifestFile:"Debug\Kreis.exe.intermediate.manifest" /MANIFESTUAC:"level='asInvoker' uiAccess='false'" /DEBUG /PDB:"C:\FH\Lehre\WS11-12\Programmieren 3\Beispiele\Kap0607\Debug\Kreis.pdb" /SUBSYSTEM:CONSOLE /TLBID:1 /DYNAMICBASE /NXCOMPAT /IMPLIB:"C:\FH\Lehre\WS11-12\Programmieren 3\Beispiele\Kap0607\Debug\Kreis.lib" /MACHINE:X86 Debug\Kreis.exe.embed.manifest.res
Debug\main.obj
^C:\FH\LEHRE\WS11-12\PROGRAMMIEREN 3\BEISPIELE\KAP0607\KREIS\DEBUG\06-KREIS.EXE.EMBED.MANIFEST.RES|C:\FH\LEHRE\WS11-12\PROGRAMMIEREN 3\BEISPIELE\KAP0607\KREIS\DEBUG\MAIN.OBJ
/ERRORREPORT:PROMPT /OUT:"C:\FH\Lehre\WS11-12\Programmieren 3\Beispiele\Kap0607\Debug\06-Kreis.exe" /INCREMENTAL /NOLOGO kernel32.lib user32.lib gdi32.lib winspool.lib comdlg32.lib advapi32.lib shell32.lib ole32.lib oleaut32.lib uuid.lib odbc32.lib odbccp32.lib /MANIFEST /ManifestFile:"Debug\06-Kreis.exe.intermediate.manifest" /MANIFESTUAC:"level='asInvoker' uiAccess='false'" /DEBUG /PDB:"C:\FH\Lehre\WS11-12\Programmieren 3\Beispiele\Kap0607\Debug\06-Kreis.pdb" /SUBSYSTEM:CONSOLE /TLBID:1 /DYNAMICBASE /NXCOMPAT /IMPLIB:"C:\FH\Lehre\WS11-12\Programmieren 3\Beispiele\Kap0607\Debug\06-Kreis.lib" /MACHINE:X86 "Debug\06-Kreis.exe.embed.manifest.res"
Debug\main.obj
