^C:\FH\LEHRE\WS10-11\PROGRAMMIEREN 3\BEISPIELE\KAP0607\KREIS\DEBUG\KREIS.EXE.INTERMEDIATE.MANIFEST
/nologo /verbose /out:"Debug\Kreis.exe.embed.manifest" /manifest Debug\Kreis.exe.intermediate.manifest
^C:\FH\LEHRE\WS11-12\PROGRAMMIEREN 3\BEISPIELE\KAP0607\KREIS\DEBUG\KREIS.EXE.INTERMEDIATE.MANIFEST
/nologo /verbose /out:"Debug\Kreis.exe.embed.manifest" /manifest Debug\Kreis.exe.intermediate.manifest
^C:\FH\LEHRE\WS11-12\PROGRAMMIEREN 3\BEISPIELE\KAP0607\KREIS\DEBUG\06-KREIS.EXE.INTERMEDIATE.MANIFEST
/nologo /verbose /out:"Debug\06-Kreis.exe.embed.manifest" /manifest "Debug\06-Kreis.exe.intermediate.manifest"
