^C:\USERS\ASUS-WIN10-PRO\SOURCE\REPOS\PROGRAMMIEREN3\AUFGABE20.C\STDAFX.CPP
C:\USERS\ASUS-WIN10-PRO\SOURCE\REPOS\PROGRAMMIEREN3\AUFGABE20.C\DEBUG\AUFGABE20.C.PCH
C:\USERS\ASUS-WIN10-PRO\SOURCE\REPOS\PROGRAMMIEREN3\AUFGABE20.C\DEBUG\VC141.PDB
C:\USERS\ASUS-WIN10-PRO\SOURCE\REPOS\PROGRAMMIEREN3\AUFGABE20.C\DEBUG\VC141.IDB
C:\USERS\ASUS-WIN10-PRO\SOURCE\REPOS\PROGRAMMIEREN3\AUFGABE20.C\DEBUG\STDAFX.OBJ
^C:\USERS\ASUS-WIN10-PRO\SOURCE\REPOS\PROGRAMMIEREN3\AUFGABE20.C\AUFGABE20.C.CPP
C:\USERS\ASUS-WIN10-PRO\SOURCE\REPOS\PROGRAMMIEREN3\AUFGABE20.C\DEBUG\VC141.PDB
C:\USERS\ASUS-WIN10-PRO\SOURCE\REPOS\PROGRAMMIEREN3\AUFGABE20.C\DEBUG\VC141.IDB
C:\USERS\ASUS-WIN10-PRO\SOURCE\REPOS\PROGRAMMIEREN3\AUFGABE20.C\DEBUG\AUFGABE20.C.OBJ
