^C:\USERS\ASUS-WIN10-PRO\SOURCE\REPOS\PROGRAMMIEREN3\AUFGABE20.C\DEBUG\AUFGABE20.C.OBJ|C:\USERS\ASUS-WIN10-PRO\SOURCE\REPOS\PROGRAMMIEREN3\AUFGABE20.C\DEBUG\STDAFX.OBJ
C:\USERS\ASUS-WIN10-PRO\SOURCE\REPOS\PROGRAMMIEREN3\DEBUG\AUFGABE20.C.EXE
C:\USERS\ASUS-WIN10-PRO\SOURCE\REPOS\PROGRAMMIEREN3\DEBUG\AUFGABE20.C.ILK
C:\USERS\ASUS-WIN10-PRO\SOURCE\REPOS\PROGRAMMIEREN3\DEBUG\AUFGABE20.C.PDB
