^C:\USERS\ASUS-WIN10-PRO\SOURCE\REPOS\FORTGESCHRITTENE PROGRAMMIERUNG\AUFGABE13\MAIN.C
/c /ZI /nologo /W3 /WX- /diagnostics:classic /sdl /Od /Oy- /D _MBCS /Gm /EHsc /RTC1 /MDd /GS /fp:precise /Zc:wchar_t /Zc:forScope /Zc:inline /Fo"DEBUG\\" /Fd"DEBUG\VC141.PDB" /Gd /TC /analyze- C:\USERS\ASUS-WIN10-PRO\SOURCE\REPOS\FORTGESCHRITTENE PROGRAMMIERUNG\AUFGABE13\MAIN.C
^C:\USERS\ASUS-WIN10-PRO\SOURCE\FORTGESCHRITTENE PROGRAMMIERUNG\AUFGABE13\MAIN.C
/c /ZI /nologo /W3 /WX- /diagnostics:classic /sdl /Od /Oy- /D _MBCS /Gm /EHsc /RTC1 /MDd /GS /fp:precise /Zc:wchar_t /Zc:forScope /Zc:inline /Fo"DEBUG\\" /Fd"DEBUG\VC141.PDB" /Gd /TC /analyze- C:\USERS\ASUS-WIN10-PRO\SOURCE\FORTGESCHRITTENE PROGRAMMIERUNG\AUFGABE13\MAIN.C
