^C:\FH\LEHRE\WS17-18\PROGRAMMIEREN3\BEISPIELE\KAP03\ALLOC\ALLOC.C
C:\FH\LEHRE\WS17-18\PROGRAMMIEREN3\BEISPIELE\KAP03\ALLOC\DEBUG\VC141.PDB
C:\FH\LEHRE\WS17-18\PROGRAMMIEREN3\BEISPIELE\KAP03\ALLOC\DEBUG\VC141.IDB
C:\FH\LEHRE\WS17-18\PROGRAMMIEREN3\BEISPIELE\KAP03\ALLOC\DEBUG\ALLOC.OBJ
