^C:\FH\LEHRE\WS17-18\PROGRAMMIEREN3\LÖSUNGEN\WOCHE01\AUFGABE4-CHARKONST\CHARKONST.C
C:\FH\LEHRE\WS17-18\PROGRAMMIEREN3\LöSUNGEN\WOCHE01\AUFGABE4-CHARKONST\DEBUG\VC141.PDB
C:\FH\LEHRE\WS17-18\PROGRAMMIEREN3\LöSUNGEN\WOCHE01\AUFGABE4-CHARKONST\DEBUG\VC141.IDB
C:\FH\LEHRE\WS17-18\PROGRAMMIEREN3\LöSUNGEN\WOCHE01\AUFGABE4-CHARKONST\DEBUG\CHARKONST.OBJ
