^C:\FH\LEHRE\WS14-15\PROGRAMMIEREN-3\BEISPIELE\KAP0809\OBJEKTZEIGER\OBJZEIGER.CPP
C:\FH\LEHRE\WS14-15\PROGRAMMIEREN-3\BEISPIELE\KAP0809\OBJEKTZEIGER\DEBUG\VC120.PDB
C:\FH\LEHRE\WS14-15\PROGRAMMIEREN-3\BEISPIELE\KAP0809\OBJEKTZEIGER\DEBUG\VC120.IDB
C:\FH\LEHRE\WS14-15\PROGRAMMIEREN-3\BEISPIELE\KAP0809\OBJEKTZEIGER\DEBUG\OBJZEIGER.OBJ
