^C:\FH\LEHRE\WS15-16\PROGRAMMIEREN 3\LÖSUNGEN\WOCHE02\AUFGABE13-KONVERTIERUNG\AUFGABE13.C
/c /ZI /nologo /W3 /WX- /Od /Oy- /D WIN32 /D _DEBUG /D _CONSOLE /D _UNICODE /D UNICODE /Gm /EHsc /RTC1 /MDd /GS /fp:precise /Zc:wchar_t /Zc:forScope /Fo"DEBUG\\" /Fd"DEBUG\VC120.PDB" /Gd /TC /analyze- C:\FH\LEHRE\WS15-16\PROGRAMMIEREN 3\LÖSUNGEN\WOCHE02\AUFGABE13-KONVERTIERUNG\AUFGABE13.C
^C:\FH\LEHRE\WS16-17\PROGRAMMIEREN 3\LÖSUNGEN\WOCHE02\AUFGABE13-KONVERTIERUNG\AUFGABE13.C
/c /ZI /nologo /W3 /WX- /Od /Oy- /D WIN32 /D _DEBUG /D _CONSOLE /D _UNICODE /D UNICODE /Gm /EHsc /RTC1 /MDd /GS /fp:precise /Zc:wchar_t /Zc:forScope /Zc:inline /Fo"DEBUG\\" /Fd"DEBUG\VC140.PDB" /Gd /TC /analyze- C:\FH\LEHRE\WS16-17\PROGRAMMIEREN 3\LÖSUNGEN\WOCHE02\AUFGABE13-KONVERTIERUNG\AUFGABE13.C
^C:\FH\LEHRE\WS17-18\PROGRAMMIEREN3\LÖSUNGEN\WOCHE02\AUFGABE13-KONVERTIERUNG\AUFGABE13.C
/c /ZI /nologo /W3 /WX- /diagnostics:classic /Od /Oy- /D WIN32 /D _DEBUG /D _CONSOLE /D _UNICODE /D UNICODE /Gm /EHsc /RTC1 /MDd /GS /fp:precise /Zc:wchar_t /Zc:forScope /Zc:inline /Fo"DEBUG\\" /Fd"DEBUG\VC141.PDB" /Gd /TC /analyze- C:\FH\LEHRE\WS17-18\PROGRAMMIEREN3\LÖSUNGEN\WOCHE02\AUFGABE13-KONVERTIERUNG\AUFGABE13.C
