#Command: "C:\Program Files (x86)\Microsoft Visual Studio\2017\Enterprise\VC\Tools\MSVC\14.11.25503\bin\HostX86\x86\link.exe" /ERRORREPORT:PROMPT @C:\Users\wie\AppData\Local\Temp\tmp5ddda33d824c44979054757c0da45eb1.rsp
^C:\FH\LEHRE\WS17-18\PROGRAMMIEREN3\LÖSUNGEN\WOCHE02\AUFGABE8-RATEN\DEBUG\AUFGABE8.OBJ
C:\FH\LEHRE\WS17-18\PROGRAMMIEREN3\LöSUNGEN\WOCHE02\DEBUG\AUFGABE08-RATEN.PDB
