﻿  ptrarith.c
c:\fh\lehre\ws17-18\programmieren3\beispiele\kap03\pointer-arithmetik\ptrarith.c(46): warning C4013: "getch" undefiniert; Annahme: extern mit Rückgabetyp int
ptrarith.obj : warning LNK4075: /EDITANDCONTINUE wird aufgrund der Angabe von /SAFESEH ignoriert.
  Pointer-Arithmetik.vcxproj -> C:\FH\Lehre\WS17-18\Programmieren3\Beispiele\Kap03\Debug\07-Pointer-Arithmetik.exe
  Pointer-Arithmetik.vcxproj -> C:\FH\Lehre\WS17-18\Programmieren3\Beispiele\Kap03\Debug\07-Pointer-Arithmetik.pdb (Full PDB)
