^C:\FH\LEHRE\WS14-15\PROGRAMMIEREN-3\BEISPIELE\KAP13_14\01_STACK\STACK.CPP
C:\FH\LEHRE\WS14-15\PROGRAMMIEREN-3\BEISPIELE\KAP13_14\01_STACK\DEBUG\VC120.PDB
C:\FH\LEHRE\WS14-15\PROGRAMMIEREN-3\BEISPIELE\KAP13_14\01_STACK\DEBUG\VC120.IDB
C:\FH\LEHRE\WS14-15\PROGRAMMIEREN-3\BEISPIELE\KAP13_14\01_STACK\DEBUG\STACK.OBJ
^C:\FH\LEHRE\WS15-16\PROGRAMMIEREN 3\BEISPIELE\KAP13_14\01_STACK\STACK.CPP
C:\FH\LEHRE\WS15-16\PROGRAMMIEREN 3\BEISPIELE\KAP13_14\01_STACK\DEBUG\VC140.PDB
C:\FH\LEHRE\WS15-16\PROGRAMMIEREN 3\BEISPIELE\KAP13_14\01_STACK\DEBUG\VC140.IDB
C:\FH\LEHRE\WS15-16\PROGRAMMIEREN 3\BEISPIELE\KAP13_14\01_STACK\DEBUG\STACK.OBJ
^C:\FH\LEHRE\WS16-17\PROGRAMMIEREN 3\BEISPIELE\KAP13_14\01_STACK\STACK.CPP
C:\FH\LEHRE\WS16-17\PROGRAMMIEREN 3\BEISPIELE\KAP13_14\01_STACK\DEBUG\VC140.PDB
C:\FH\LEHRE\WS16-17\PROGRAMMIEREN 3\BEISPIELE\KAP13_14\01_STACK\DEBUG\VC140.IDB
C:\FH\LEHRE\WS16-17\PROGRAMMIEREN 3\BEISPIELE\KAP13_14\01_STACK\DEBUG\STACK.OBJ
