^C:\FH\LEHRE\WS14-15\PROGRAMMIEREN-3\BEISPIELE\KAP13_14\01_STACK\DEBUG\STACK.OBJ
C:\FH\LEHRE\WS14-15\PROGRAMMIEREN-3\BEISPIELE\KAP13_14\DEBUG\01_STACK.ILK
C:\FH\LEHRE\WS14-15\PROGRAMMIEREN-3\BEISPIELE\KAP13_14\DEBUG\01_STACK.EXE
C:\FH\LEHRE\WS14-15\PROGRAMMIEREN-3\BEISPIELE\KAP13_14\DEBUG\01_STACK.PDB
^C:\FH\LEHRE\WS15-16\PROGRAMMIEREN 3\BEISPIELE\KAP13_14\01_STACK\DEBUG\STACK.OBJ
C:\FH\LEHRE\WS15-16\PROGRAMMIEREN 3\BEISPIELE\KAP13_14\DEBUG\01_STACK.ILK
C:\FH\LEHRE\WS15-16\PROGRAMMIEREN 3\BEISPIELE\KAP13_14\DEBUG\01_STACK.EXE
C:\FH\LEHRE\WS15-16\PROGRAMMIEREN 3\BEISPIELE\KAP13_14\DEBUG\01_STACK.PDB
^C:\FH\LEHRE\WS16-17\PROGRAMMIEREN 3\BEISPIELE\KAP13_14\01_STACK\DEBUG\STACK.OBJ
C:\FH\LEHRE\WS16-17\PROGRAMMIEREN 3\BEISPIELE\KAP13_14\DEBUG\01_STACK.ILK
C:\FH\LEHRE\WS16-17\PROGRAMMIEREN 3\BEISPIELE\KAP13_14\DEBUG\01_STACK.EXE
C:\FH\LEHRE\WS16-17\PROGRAMMIEREN 3\BEISPIELE\KAP13_14\DEBUG\01_STACK.PDB
