^C:\Users\ASUS-WIN10-PRO\source\repos\CppProject\Aufgabe36\Aufgabe36.vcxproj
C:\Users\ASUS-WIN10-PRO\source\repos\CppProject\Release\Aufgabe36____toContinue.ipdb
C:\Users\ASUS-WIN10-PRO\source\repos\CppProject\Release\Aufgabe36____toContinue.iobj
^C:\Users\ASUS-WIN10-PRO\source\repos\CppProject\Aufgabe36\Aufgabe36.vcxproj
C:\Users\ASUS-WIN10-PRO\source\repos\CppProject\Release\Aufgabe36____toContinue.ipdb
C:\Users\ASUS-WIN10-PRO\source\repos\CppProject\Release\Aufgabe36____toContinue.iobj
