^C:\FH\LEHRE\WS14-15\PROGRAMMIEREN-3\BEISPIELE\KAP13_14\02_COPY\COPY.CPP
C:\FH\LEHRE\WS14-15\PROGRAMMIEREN-3\BEISPIELE\KAP13_14\02_COPY\DEBUG\VC120.PDB
C:\FH\LEHRE\WS14-15\PROGRAMMIEREN-3\BEISPIELE\KAP13_14\02_COPY\DEBUG\VC120.IDB
C:\FH\LEHRE\WS14-15\PROGRAMMIEREN-3\BEISPIELE\KAP13_14\02_COPY\DEBUG\COPY.OBJ
