^C:\FH\LEHRE\WS15-16\PROGRAMMIEREN 3\BEISPIELE\KAP11\ALGORITHMEN-BEISPIEL\DEBUG\ALGO_BSP.OBJ
C:\FH\LEHRE\WS15-16\PROGRAMMIEREN 3\BEISPIELE\KAP11\DEBUG\07_ALGORITHMEN-BEISPIEL.ILK
C:\FH\LEHRE\WS15-16\PROGRAMMIEREN 3\BEISPIELE\KAP11\DEBUG\07_ALGORITHMEN-BEISPIEL.EXE
C:\FH\LEHRE\WS15-16\PROGRAMMIEREN 3\BEISPIELE\KAP11\DEBUG\07_ALGORITHMEN-BEISPIEL.PDB
