^C:\Users\ASUS-WIN10-PRO\source\Klausuraufgaben\Aufgabe3_07_2017\Aufgabe3_07_2017.vcxproj
C:\Users\ASUS-WIN10-PRO\source\Klausuraufgaben\Release\Aufgabe3_07_2017.ipdb
C:\Users\ASUS-WIN10-PRO\source\Klausuraufgaben\Release\Aufgabe3_07_2017.iobj
^C:\Users\ASUS-WIN10-PRO\source\Klausuraufgaben\Aufgabe3_07_2017\Aufgabe3_07_2017.vcxproj
C:\Users\ASUS-WIN10-PRO\source\Klausuraufgaben\Release\Aufgabe3_07_2017.ipdb
C:\Users\ASUS-WIN10-PRO\source\Klausuraufgaben\Release\Aufgabe3_07_2017.iobj
^C:\Users\ASUS-WIN10-PRO\source\Klausuraufgaben\Aufgabe3_07_2017\Aufgabe3_07_2017.vcxproj
C:\Users\ASUS-WIN10-PRO\source\Klausuraufgaben\Release\Aufgabe3_07_2017.ipdb
C:\Users\ASUS-WIN10-PRO\source\Klausuraufgaben\Release\Aufgabe3_07_2017.iobj
