^C:\FH\LEHRE\WS13-14\PROGRAMMIEREN 3\LÖSUNGEN\WOCHE05\AUFGABE30-LAMBDA\LAMBDA.CPP
C:\FH\LEHRE\WS13-14\PROGRAMMIEREN 3\LöSUNGEN\WOCHE05\AUFGABE30-LAMBDA\DEBUG\LAMBDA.OBJ
C:\FH\LEHRE\WS13-14\PROGRAMMIEREN 3\LÖSUNGEN\WOCHE05\AUFGABE30-LAMBDA\DEBUG\VC110.PDB
