^C:\FH\LEHRE\WS13-14\PROGRAMMIEREN 3\LÖSUNGEN\WOCHE05\AUFGABE30-LAMBDA\DEBUG\LAMBDA.OBJ
C:\FH\LEHRE\WS13-14\PROGRAMMIEREN 3\LöSUNGEN\WOCHE05\DEBUG\AUFGABE30-LAMBDA.ILK
C:\FH\LEHRE\WS13-14\PROGRAMMIEREN 3\LöSUNGEN\WOCHE05\DEBUG\AUFGABE30-LAMBDA.EXE
C:\FH\LEHRE\WS13-14\PROGRAMMIEREN 3\LÖSUNGEN\WOCHE05\DEBUG\AUFGABE30-LAMBDA.PDB
