^C:\FH\LEHRE\WS12-13\PROGRAMMIEREN 3\BEISPIELE\KAP11\STLSTRING-BEISPIEL\STRING_BSP.CPP
C:\FH\LEHRE\WS12-13\PROGRAMMIEREN 3\BEISPIELE\KAP11\STLSTRING-BEISPIEL\DEBUG\STRING_BSP.OBJ
C:\FH\LEHRE\WS12-13\PROGRAMMIEREN 3\BEISPIELE\KAP11\STLSTRING-BEISPIEL\DEBUG\VC110.PDB
^C:\FH\LEHRE\WS13-14\PROGRAMMIEREN 3\BEISPIELE\KAP11\STLSTRING-BEISPIEL\STRING_BSP.CPP
C:\FH\LEHRE\WS13-14\PROGRAMMIEREN 3\BEISPIELE\KAP11\STLSTRING-BEISPIEL\DEBUG\STRING_BSP.OBJ
C:\FH\LEHRE\WS13-14\PROGRAMMIEREN 3\BEISPIELE\KAP11\STLSTRING-BEISPIEL\DEBUG\VC110.PDB
