^C:\FH\LEHRE\WS12-13\PROGRAMMIEREN 3\BEISPIELE\KAP11\STLSTRING-BEISPIEL\DEBUG\STRING_BSP.OBJ
/OUT:"C:\FH\LEHRE\WS12-13\PROGRAMMIEREN 3\BEISPIELE\KAP11\DEBUG\01_STLSTRING-BEISPIEL.EXE" /INCREMENTAL /NOLOGO kernel32.lib user32.lib gdi32.lib winspool.lib comdlg32.lib advapi32.lib shell32.lib ole32.lib oleaut32.lib uuid.lib odbc32.lib odbccp32.lib /MANIFEST /MANIFESTUAC:"level='asInvoker' uiAccess='false'" /manifest:embed /DEBUG /PDB:"C:\FH\LEHRE\WS12-13\PROGRAMMIEREN 3\BEISPIELE\KAP11\DEBUG\01_STLSTRING-BEISPIEL.PDB" /SUBSYSTEM:CONSOLE /TLBID:1 /DYNAMICBASE:NO /IMPLIB:"C:\FH\LEHRE\WS12-13\PROGRAMMIEREN 3\BEISPIELE\KAP11\DEBUG\01_STLSTRING-BEISPIEL.LIB" /MACHINE:X86 /SAFESEH DEBUG\STRING_BSP.OBJ
^C:\FH\LEHRE\WS13-14\PROGRAMMIEREN 3\BEISPIELE\KAP11\STLSTRING-BEISPIEL\DEBUG\STRING_BSP.OBJ
/OUT:"C:\FH\LEHRE\WS13-14\PROGRAMMIEREN 3\BEISPIELE\KAP11\DEBUG\01_STLSTRING-BEISPIEL.EXE" /INCREMENTAL /NOLOGO kernel32.lib user32.lib gdi32.lib winspool.lib comdlg32.lib advapi32.lib shell32.lib ole32.lib oleaut32.lib uuid.lib odbc32.lib odbccp32.lib /MANIFEST /MANIFESTUAC:"level='asInvoker' uiAccess='false'" /manifest:embed /DEBUG /PDB:"C:\FH\LEHRE\WS13-14\PROGRAMMIEREN 3\BEISPIELE\KAP11\DEBUG\01_STLSTRING-BEISPIEL.PDB" /SUBSYSTEM:CONSOLE /TLBID:1 /DYNAMICBASE:NO /IMPLIB:"C:\FH\LEHRE\WS13-14\PROGRAMMIEREN 3\BEISPIELE\KAP11\DEBUG\01_STLSTRING-BEISPIEL.LIB" /MACHINE:X86 /SAFESEH DEBUG\STRING_BSP.OBJ
