^C:\FH\LEHRE\WS10-11\PROGRAMMIEREN 3\LÖSUNGEN\WOCHE06\AUFGABE34-STRTOUPPER\DEBUG\AUFGABE34-STRTOUPPER_MANIFEST.RC
C:\FH\LEHRE\WS10-11\PROGRAMMIEREN 3\LöSUNGEN\WOCHE06\AUFGABE34-STRTOUPPER\DEBUG\AUFGABE34-STRTOUPPER.EXE.EMBED.MANIFEST.RES
^C:\FH\LEHRE\WS11-12\PROGRAMMIEREN 3\LÖSUNGEN\WOCHE06\AUFGABE34-STRTOUPPER\DEBUG\AUFGABE34-STRTOUPPER_MANIFEST.RC
C:\FH\LEHRE\WS11-12\PROGRAMMIEREN 3\LöSUNGEN\WOCHE06\AUFGABE34-STRTOUPPER\DEBUG\AUFGABE34-STRTOUPPER.EXE.EMBED.MANIFEST.RES
