^C:\FH\LEHRE\WS10-11\PROGRAMMIEREN 3\LÖSUNGEN\WOCHE06\AUFGABE31-ERWEITERTELISTE\AUFGABE31.C|C:\FH\LEHRE\WS10-11\PROGRAMMIEREN 3\LÖSUNGEN\WOCHE06\AUFGABE31-ERWEITERTELISTE\LISTE.C
C:\FH\LEHRE\WS10-11\PROGRAMMIEREN 3\LöSUNGEN\WOCHE06\AUFGABE31-ERWEITERTELISTE\DEBUG\LISTE.OBJ
^C:\FH\LEHRE\WS10-11\PROGRAMMIEREN 3\LÖSUNGEN\WOCHE06\AUFGABE31-ERWEITERTELISTE\AUFGABE31.C
C:\FH\LEHRE\WS10-11\PROGRAMMIEREN 3\LÖSUNGEN\WOCHE06\AUFGABE31-ERWEITERTELISTE\DEBUG\VC100.PDB
C:\FH\LEHRE\WS10-11\PROGRAMMIEREN 3\LöSUNGEN\WOCHE06\AUFGABE31-ERWEITERTELISTE\DEBUG\AUFGABE31.OBJ
^C:\FH\LEHRE\WS10-11\PROGRAMMIEREN 3\LÖSUNGEN\WOCHE06\AUFGABE31-ERWEITERTELISTE\LISTE.C
C:\FH\LEHRE\WS10-11\PROGRAMMIEREN 3\LÖSUNGEN\WOCHE06\AUFGABE31-ERWEITERTELISTE\DEBUG\VC100.PDB
^C:\FH\LEHRE\WS11-12\PROGRAMMIEREN 3\LÖSUNGEN\WOCHE06\AUFGABE31-ERWEITERTELISTE\AUFGABE31.C|C:\FH\LEHRE\WS11-12\PROGRAMMIEREN 3\LÖSUNGEN\WOCHE06\AUFGABE31-ERWEITERTELISTE\LISTE.C
C:\FH\LEHRE\WS11-12\PROGRAMMIEREN 3\LöSUNGEN\WOCHE06\AUFGABE31-ERWEITERTELISTE\DEBUG\AUFGABE31.OBJ
C:\FH\LEHRE\WS11-12\PROGRAMMIEREN 3\LöSUNGEN\WOCHE06\AUFGABE31-ERWEITERTELISTE\DEBUG\LISTE.OBJ
^C:\FH\LEHRE\WS11-12\PROGRAMMIEREN 3\LÖSUNGEN\WOCHE06\AUFGABE31-ERWEITERTELISTE\AUFGABE31.C
C:\FH\LEHRE\WS11-12\PROGRAMMIEREN 3\LÖSUNGEN\WOCHE06\AUFGABE31-ERWEITERTELISTE\DEBUG\VC100.PDB
^C:\FH\LEHRE\WS11-12\PROGRAMMIEREN 3\LÖSUNGEN\WOCHE06\AUFGABE31-ERWEITERTELISTE\LISTE.C
C:\FH\LEHRE\WS11-12\PROGRAMMIEREN 3\LÖSUNGEN\WOCHE06\AUFGABE31-ERWEITERTELISTE\DEBUG\VC100.PDB
