^C:\Users\ASUS-WIN10-PRO\source\repos\CppProject\Aufgabe52\Aufgabe52.vcxproj
C:\Users\ASUS-WIN10-PRO\source\repos\CppProject\Release\Aufgabe52.ipdb
C:\Users\ASUS-WIN10-PRO\source\repos\CppProject\Release\Aufgabe52.iobj
^C:\Users\ASUS-WIN10-PRO\source\repos\CppProject\Aufgabe52\Aufgabe52.vcxproj
C:\Users\ASUS-WIN10-PRO\source\repos\CppProject\Release\Aufgabe52.ipdb
C:\Users\ASUS-WIN10-PRO\source\repos\CppProject\Release\Aufgabe52.iobj
^C:\Users\ASUS-WIN10-PRO\source\repos\CppProject\Aufgabe52\Aufgabe52.vcxproj
C:\Users\ASUS-WIN10-PRO\source\repos\CppProject\Release\Aufgabe52.ipdb
C:\Users\ASUS-WIN10-PRO\source\repos\CppProject\Release\Aufgabe52.iobj
