^C:\Users\ASUS-WIN10-PRO\source\Klausuraufgaben\Aufgabe4_07_2017\Aufgabe4_07_2017.vcxproj
C:\Users\ASUS-WIN10-PRO\source\Klausuraufgaben\Release\Aufgabe4_07_2017.ipdb
C:\Users\ASUS-WIN10-PRO\source\Klausuraufgaben\Release\Aufgabe4_07_2017.iobj
^C:\Users\ASUS-WIN10-PRO\source\Klausuraufgaben\Aufgabe4_07_2017\Aufgabe4_07_2017.vcxproj
C:\Users\ASUS-WIN10-PRO\source\Klausuraufgaben\Release\Aufgabe4_07_2017.ipdb
C:\Users\ASUS-WIN10-PRO\source\Klausuraufgaben\Release\Aufgabe4_07_2017.iobj
^C:\Users\ASUS-WIN10-PRO\source\Klausuraufgaben\Aufgabe4_07_2017\Aufgabe4_07_2017.vcxproj
C:\Users\ASUS-WIN10-PRO\source\Klausuraufgaben\Release\Aufgabe4_07_2017.ipdb
C:\Users\ASUS-WIN10-PRO\source\Klausuraufgaben\Release\Aufgabe4_07_2017.iobj
^C:\Users\ASUS-WIN10-PRO\source\Klausuraufgaben\Aufgabe4_07_2017\Aufgabe4_07_2017.vcxproj
C:\Users\ASUS-WIN10-PRO\source\Klausuraufgaben\Release\Aufgabe4_07_2017.ipdb
C:\Users\ASUS-WIN10-PRO\source\Klausuraufgaben\Release\Aufgabe4_07_2017.iobj
^C:\Users\ASUS-WIN10-PRO\source\Klausuraufgaben\Aufgabe4_07_2017\Aufgabe4_07_2017.vcxproj
C:\Users\ASUS-WIN10-PRO\source\Klausuraufgaben\Release\Aufgabe4_07_2017.ipdb
C:\Users\ASUS-WIN10-PRO\source\Klausuraufgaben\Release\Aufgabe4_07_2017.iobj
^C:\Users\ASUS-WIN10-PRO\source\Klausuraufgaben\Aufgabe4_07_2017\Aufgabe4_07_2017.vcxproj
C:\Users\ASUS-WIN10-PRO\source\Klausuraufgaben\Release\Aufgabe4_07_2017.ipdb
C:\Users\ASUS-WIN10-PRO\source\Klausuraufgaben\Release\Aufgabe4_07_2017.iobj
