^C:\FH\LEHRE\WS12-13\PROGRAMMIEREN 3\LÖSUNGEN\WOCHE08\AUFGABE43-SINGLETON\SINGLETON.CPP
/c /ZI /nologo /W3 /WX- /Od /Oy- /D WIN32 /D _DEBUG /D _CONSOLE /D _UNICODE /D UNICODE /Gm /EHsc /RTC1 /MDd /GS /fp:precise /Zc:wchar_t /Zc:forScope /Fo"DEBUG\\" /Fd"DEBUG\VC110.PDB" /Gd /TP /analyze- C:\FH\LEHRE\WS12-13\PROGRAMMIEREN 3\LÖSUNGEN\WOCHE08\AUFGABE43-SINGLETON\SINGLETON.CPP
^C:\FH\LEHRE\WS13-14\PROGRAMMIEREN 3\LÖSUNGEN\WOCHE08\AUFGABE43-SINGLETON\SINGLETON.CPP
/c /ZI /nologo /W3 /WX- /Od /Oy- /D WIN32 /D _DEBUG /D _CONSOLE /D _UNICODE /D UNICODE /Gm /EHsc /RTC1 /MDd /GS /fp:precise /Zc:wchar_t /Zc:forScope /Fo"DEBUG\\" /Fd"DEBUG\VC110.PDB" /Gd /TP /analyze- C:\FH\LEHRE\WS13-14\PROGRAMMIEREN 3\LÖSUNGEN\WOCHE08\AUFGABE43-SINGLETON\SINGLETON.CPP
