^C:\FH\LEHRE\WS12-13\PROGRAMMIEREN 3\LÖSUNGEN\WOCHE08\AUFGABE43-SINGLETON\DEBUG\SINGLETON.OBJ
C:\FH\LEHRE\WS12-13\PROGRAMMIEREN 3\LöSUNGEN\WOCHE08\DEBUG\AUFGABE43-SINGLETON.ILK
C:\FH\LEHRE\WS12-13\PROGRAMMIEREN 3\LöSUNGEN\WOCHE08\DEBUG\AUFGABE43-SINGLETON.EXE
C:\FH\LEHRE\WS12-13\PROGRAMMIEREN 3\LÖSUNGEN\WOCHE08\DEBUG\AUFGABE43-SINGLETON.PDB
^C:\FH\LEHRE\WS13-14\PROGRAMMIEREN 3\LÖSUNGEN\WOCHE08\AUFGABE43-SINGLETON\DEBUG\SINGLETON.OBJ
C:\FH\LEHRE\WS13-14\PROGRAMMIEREN 3\LöSUNGEN\WOCHE08\DEBUG\AUFGABE43-SINGLETON.ILK
C:\FH\LEHRE\WS13-14\PROGRAMMIEREN 3\LöSUNGEN\WOCHE08\DEBUG\AUFGABE43-SINGLETON.EXE
C:\FH\LEHRE\WS13-14\PROGRAMMIEREN 3\LÖSUNGEN\WOCHE08\DEBUG\AUFGABE43-SINGLETON.PDB
