^C:\FH\LEHRE\WS17-18\PROGRAMMIEREN3\BEISPIELE\KAP05\CPP11\DEBUG\AUTO.OBJ|C:\FH\LEHRE\WS17-18\PROGRAMMIEREN3\BEISPIELE\KAP05\CPP11\DEBUG\DECLTYPE.OBJ|C:\FH\LEHRE\WS17-18\PROGRAMMIEREN3\BEISPIELE\KAP05\CPP11\DEBUG\LAMBDAEXAMPLES.OBJ|C:\FH\LEHRE\WS17-18\PROGRAMMIEREN3\BEISPIELE\KAP05\CPP11\DEBUG\NEWINCPP.OBJ|C:\FH\LEHRE\WS17-18\PROGRAMMIEREN3\BEISPIELE\KAP05\CPP11\DEBUG\NULLPTR.OBJ|C:\FH\LEHRE\WS17-18\PROGRAMMIEREN3\BEISPIELE\KAP05\CPP11\DEBUG\STATICASSERT.OBJ|C:\FH\LEHRE\WS17-18\PROGRAMMIEREN3\BEISPIELE\KAP05\CPP11\DEBUG\STDAFX.OBJ
C:\FH\LEHRE\WS17-18\PROGRAMMIEREN3\BEISPIELE\KAP05\DEBUG\08-NEWINCPP11.ILK
C:\FH\LEHRE\WS17-18\PROGRAMMIEREN3\BEISPIELE\KAP05\DEBUG\08-NEWINCPP11.EXE
C:\FH\LEHRE\WS17-18\PROGRAMMIEREN3\BEISPIELE\KAP05\DEBUG\08-NEWINCPP11.PDB
