^C:\USERS\ASUS-WIN10-PRO\SOURCE\REPOS\FORTGESCHRITTENE PROGRAMMIERUNG\AUFGABE2\MAIN.C
C:\USERS\ASUS-WIN10-PRO\SOURCE\REPOS\FORTGESCHRITTENE PROGRAMMIERUNG\AUFGABE2\DEBUG\VC141.PDB
C:\USERS\ASUS-WIN10-PRO\SOURCE\REPOS\FORTGESCHRITTENE PROGRAMMIERUNG\AUFGABE2\DEBUG\VC141.IDB
C:\USERS\ASUS-WIN10-PRO\SOURCE\REPOS\FORTGESCHRITTENE PROGRAMMIERUNG\AUFGABE2\DEBUG\MAIN.OBJ
