^C:\FH\LEHRE\WS17-18\PROGRAMMIEREN3\BEISPIELE\KAP03\STATIC\DEBUG\STATIC.OBJ
C:\FH\LEHRE\WS17-18\PROGRAMMIEREN3\BEISPIELE\KAP03\DEBUG\01-STATIC.ILK
C:\FH\LEHRE\WS17-18\PROGRAMMIEREN3\BEISPIELE\KAP03\DEBUG\01-STATIC.EXE
C:\FH\LEHRE\WS17-18\PROGRAMMIEREN3\BEISPIELE\KAP03\DEBUG\01-STATIC.PDB
