^C:\FH\LEHRE\WS17-18\PROGRAMMIEREN3\BEISPIELE\KAP05\07-LAMBDA\DEBUG\LAMBDA.OBJ
C:\FH\LEHRE\WS17-18\PROGRAMMIEREN3\BEISPIELE\KAP05\DEBUG\07-LAMBDA.ILK
C:\FH\LEHRE\WS17-18\PROGRAMMIEREN3\BEISPIELE\KAP05\DEBUG\07-LAMBDA.EXE
C:\FH\LEHRE\WS17-18\PROGRAMMIEREN3\BEISPIELE\KAP05\DEBUG\07-LAMBDA.PDB
