^C:\TEMP\AUFGABE29.C|C:\TEMP\LISTE.C
C:\FH\LEHRE\WS11-12\PROGRAMMIEREN 3\LöSUNGEN\WOCHE05\LISTE\DEBUG\AUFGABE29.OBJ
C:\FH\LEHRE\WS11-12\PROGRAMMIEREN 3\LöSUNGEN\WOCHE05\LISTE\DEBUG\LISTE.OBJ
^C:\TEMP\AUFGABE29.C
C:\FH\LEHRE\WS11-12\PROGRAMMIEREN 3\LÖSUNGEN\WOCHE05\LISTE\DEBUG\VC100.PDB
^C:\TEMP\LISTE.C
C:\FH\LEHRE\WS11-12\PROGRAMMIEREN 3\LÖSUNGEN\WOCHE05\LISTE\DEBUG\VC100.PDB
