^C:\FH\LEHRE\WS11-12\PROGRAMMIEREN 3\LÖSUNGEN\WOCHE05\LISTE\DEBUG\AUFGABE29.OBJ|C:\FH\LEHRE\WS11-12\PROGRAMMIEREN 3\LÖSUNGEN\WOCHE05\LISTE\DEBUG\LISTE.EXE.EMBED.MANIFEST.RES|C:\FH\LEHRE\WS11-12\PROGRAMMIEREN 3\LÖSUNGEN\WOCHE05\LISTE\DEBUG\LISTE.OBJ
/ERRORREPORT:PROMPT /OUT:"C:\FH\Lehre\WS11-12\Programmieren 3\Lösungen\Woche05\Debug\Liste.exe" /INCREMENTAL /NOLOGO kernel32.lib user32.lib gdi32.lib winspool.lib comdlg32.lib advapi32.lib shell32.lib ole32.lib oleaut32.lib uuid.lib odbc32.lib odbccp32.lib /MANIFEST /ManifestFile:"Debug\Liste.exe.intermediate.manifest" /MANIFESTUAC:"level='asInvoker' uiAccess='false'" /DEBUG /PDB:"C:\FH\Lehre\WS11-12\Programmieren 3\Lösungen\Woche05\Debug\Liste.pdb" /SUBSYSTEM:CONSOLE /TLBID:1 /DYNAMICBASE /NXCOMPAT /IMPLIB:"C:\FH\Lehre\WS11-12\Programmieren 3\Lösungen\Woche05\Debug\Liste.lib" /MACHINE:X86 Debug\Liste.exe.embed.manifest.res
Debug\aufgabe29.obj
Debug\liste.obj
