^C:\FH\LEHRE\WS14-15\PROGRAMMIEREN-3\BEISPIELE\KAP0809\REINTERPRET-CAST\REINTERPRET.CC
C:\FH\LEHRE\WS14-15\PROGRAMMIEREN-3\BEISPIELE\KAP0809\REINTERPRET-CAST\DEBUG\VC120.PDB
C:\FH\LEHRE\WS14-15\PROGRAMMIEREN-3\BEISPIELE\KAP0809\REINTERPRET-CAST\DEBUG\VC120.IDB
C:\FH\LEHRE\WS14-15\PROGRAMMIEREN-3\BEISPIELE\KAP0809\REINTERPRET-CAST\DEBUG\REINTERPRET.OBJ
