^C:\USERS\ASUS-WIN10-PRO\SOURCE\REPOS\PROGRAMMIEREN3\AUFGABE22\STDAFX.CPP
C:\USERS\ASUS-WIN10-PRO\SOURCE\REPOS\PROGRAMMIEREN3\AUFGABE22\DEBUG\AUFGABE22.PCH
C:\USERS\ASUS-WIN10-PRO\SOURCE\REPOS\PROGRAMMIEREN3\AUFGABE22\DEBUG\VC141.PDB
C:\USERS\ASUS-WIN10-PRO\SOURCE\REPOS\PROGRAMMIEREN3\AUFGABE22\DEBUG\VC141.IDB
C:\USERS\ASUS-WIN10-PRO\SOURCE\REPOS\PROGRAMMIEREN3\AUFGABE22\DEBUG\STDAFX.OBJ
^C:\USERS\ASUS-WIN10-PRO\SOURCE\REPOS\PROGRAMMIEREN3\AUFGABE22\AUFGABE22.CPP
C:\USERS\ASUS-WIN10-PRO\SOURCE\REPOS\PROGRAMMIEREN3\AUFGABE22\DEBUG\VC141.PDB
C:\USERS\ASUS-WIN10-PRO\SOURCE\REPOS\PROGRAMMIEREN3\AUFGABE22\DEBUG\VC141.IDB
C:\USERS\ASUS-WIN10-PRO\SOURCE\REPOS\PROGRAMMIEREN3\AUFGABE22\DEBUG\AUFGABE22.OBJ
