^C:\FH\LEHRE\WS13-14\PROGRAMMIEREN 3\LÖSUNGEN\WOCHE11\AUFGABE58-LOTTO\DEBUG\LOTTO.OBJ
C:\FH\LEHRE\WS13-14\PROGRAMMIEREN 3\LöSUNGEN\WOCHE11\DEBUG\AUFGABE58-LOTTO.ILK
C:\FH\LEHRE\WS13-14\PROGRAMMIEREN 3\LöSUNGEN\WOCHE11\DEBUG\AUFGABE58-LOTTO.EXE
C:\FH\LEHRE\WS13-14\PROGRAMMIEREN 3\LÖSUNGEN\WOCHE11\DEBUG\AUFGABE58-LOTTO.PDB
