^C:\FH\LEHRE\WS17-18\PROGRAMMIEREN3\LÖSUNGEN\WOCHE01\PARITAET\PARITY.C
C:\FH\LEHRE\WS17-18\PROGRAMMIEREN3\LöSUNGEN\WOCHE01\PARITAET\DEBUG\VC141.PDB
C:\FH\LEHRE\WS17-18\PROGRAMMIEREN3\LöSUNGEN\WOCHE01\PARITAET\DEBUG\VC141.IDB
C:\FH\LEHRE\WS17-18\PROGRAMMIEREN3\LöSUNGEN\WOCHE01\PARITAET\DEBUG\PARITY.OBJ
