^C:\FH\LEHRE\WS13-14\PROGRAMMIEREN 3\BEISPIELE\KAP0809\ABSTRAKTE-KLASSE\ABSTRAKTE-KLASSE.CPP
C:\FH\LEHRE\WS13-14\PROGRAMMIEREN 3\BEISPIELE\KAP0809\ABSTRAKTE-KLASSE\DEBUG\ABSTRAKTE-KLASSE.OBJ
C:\FH\LEHRE\WS13-14\PROGRAMMIEREN 3\BEISPIELE\KAP0809\ABSTRAKTE-KLASSE\DEBUG\VC110.PDB
