^C:\FH\LEHRE\WS12-13\PROGRAMMIEREN 3\LÖSUNGEN\WOCHE13\AUFGABE65-CAESAR1\DEBUG\AUFGABE65-CAESAR.EXE.EMBED.MANIFEST.RES|C:\FH\LEHRE\WS12-13\PROGRAMMIEREN 3\LÖSUNGEN\WOCHE13\AUFGABE65-CAESAR1\DEBUG\CAESAR1.OBJ
C:\FH\LEHRE\WS12-13\PROGRAMMIEREN 3\LöSUNGEN\WOCHE13\DEBUG\AUFGABE65-CAESAR.ILK
C:\FH\LEHRE\WS12-13\PROGRAMMIEREN 3\LöSUNGEN\WOCHE13\DEBUG\AUFGABE65-CAESAR.EXE
C:\FH\LEHRE\WS12-13\PROGRAMMIEREN 3\LöSUNGEN\WOCHE13\AUFGABE65-CAESAR1\DEBUG\AUFGABE65-CAESAR.EXE.INTERMEDIATE.MANIFEST
C:\FH\LEHRE\WS12-13\PROGRAMMIEREN 3\LÖSUNGEN\WOCHE13\DEBUG\AUFGABE65-CAESAR.PDB
