^C:\FH\LEHRE\WS10-11\PROGRAMMIEREN 3\LÖSUNGEN\WOCHE04\AUFGABE22-RAETSEL\DEBUG\AUFGABE22-RAETSEL_MANIFEST.RC
C:\FH\LEHRE\WS10-11\PROGRAMMIEREN 3\LöSUNGEN\WOCHE04\AUFGABE22-RAETSEL\DEBUG\AUFGABE22-RAETSEL.EXE.EMBED.MANIFEST
^C:\FH\LEHRE\WS11-12\PROGRAMMIEREN 3\LÖSUNGEN\WOCHE04\AUFGABE22-RAETSEL\DEBUG\AUFGABE22-RAETSEL_MANIFEST.RC
C:\FH\LEHRE\WS11-12\PROGRAMMIEREN 3\LöSUNGEN\WOCHE04\AUFGABE22-RAETSEL\DEBUG\AUFGABE22-RAETSEL.EXE.EMBED.MANIFEST
