^C:\Users\ASUS-WIN10-PRO\source\repos\CppProject\Aufgabe40\Aufgabe40.vcxproj
C:\Users\ASUS-WIN10-PRO\source\repos\CppProject\Release\Aufgabe40.ipdb
C:\Users\ASUS-WIN10-PRO\source\repos\CppProject\Release\Aufgabe40.iobj
