^C:\USERS\ASUS-WIN10-PRO\SOURCE\REPOS\CPPPROJECT\AUFGABE41\MAIN.CPP
C:\USERS\ASUS-WIN10-PRO\SOURCE\REPOS\CPPPROJECT\AUFGABE41\DEBUG\VC141.PDB
C:\USERS\ASUS-WIN10-PRO\SOURCE\REPOS\CPPPROJECT\AUFGABE41\DEBUG\VC141.IDB
C:\USERS\ASUS-WIN10-PRO\SOURCE\REPOS\CPPPROJECT\AUFGABE41\DEBUG\MAIN.OBJ
