^C:\FH\LEHRE\WS14-15\PROGRAMMIEREN-3\BEISPIELE\KAP13_14\05_EURO\EURO.CPP
/c /ZI /nologo /W3 /WX- /Od /Oy- /D WIN32 /D _DEBUG /D _CONSOLE /D _UNICODE /D UNICODE /Gm /EHsc /RTC1 /MDd /GS /fp:precise /Zc:wchar_t /Zc:forScope /Fo"DEBUG\\" /Fd"DEBUG\VC120.PDB" /Gd /TP /analyze- C:\FH\LEHRE\WS14-15\PROGRAMMIEREN-3\BEISPIELE\KAP13_14\05_EURO\EURO.CPP
^C:\FH\LEHRE\WS15-16\PROGRAMMIEREN 3\BEISPIELE\KAP13_14\05_EURO\EURO.CPP
/c /ZI /nologo /W3 /WX- /Od /Oy- /D WIN32 /D _DEBUG /D _CONSOLE /D _UNICODE /D UNICODE /Gm /EHsc /RTC1 /MDd /GS /fp:precise /Zc:wchar_t /Zc:forScope /Zc:inline /Fo"DEBUG\\" /Fd"DEBUG\VC140.PDB" /Gd /TP /analyze- C:\FH\LEHRE\WS15-16\PROGRAMMIEREN 3\BEISPIELE\KAP13_14\05_EURO\EURO.CPP
