^C:\FH\LEHRE\WS10-11\PROGRAMMIEREN 3\LÖSUNGEN\WOCHE06\AUFGABE32-KETTE\KETTE.C
/c /ZI /nologo /W3 /WX- /Od /Oy- /D WIN32 /D _DEBUG /D _CONSOLE /D _UNICODE /D UNICODE /Gm /EHsc /RTC1 /MDd /GS /fp:precise /Zc:wchar_t /Zc:forScope /Fo"Debug\\" /Fd"Debug\vc100.pdb" /Gd /TC /analyze- /errorReport:prompt C:\FH\LEHRE\WS10-11\PROGRAMMIEREN 3\LÖSUNGEN\WOCHE06\AUFGABE32-KETTE\KETTE.C
^C:\FH\LEHRE\WS11-12\PROGRAMMIEREN 3\LÖSUNGEN\WOCHE06\AUFGABE32-KETTE\KETTE.C
/c /ZI /nologo /W3 /WX- /Od /Oy- /D WIN32 /D _DEBUG /D _CONSOLE /D _UNICODE /D UNICODE /Gm /EHsc /RTC1 /MDd /GS /fp:precise /Zc:wchar_t /Zc:forScope /Fo"Debug\\" /Fd"Debug\vc100.pdb" /Gd /TC /analyze- /errorReport:prompt C:\FH\LEHRE\WS11-12\PROGRAMMIEREN 3\LÖSUNGEN\WOCHE06\AUFGABE32-KETTE\KETTE.C
