^C:\FH\LEHRE\WS10-11\PROGRAMMIEREN 3\LÖSUNGEN\WOCHE06\AUFGABE32-KETTE\DEBUG\AUFGABE32-KETTE.EXE.INTERMEDIATE.MANIFEST
C:\FH\LEHRE\WS10-11\PROGRAMMIEREN 3\LöSUNGEN\WOCHE06\AUFGABE32-KETTE\DEBUG\AUFGABE32-KETTE.EXE.EMBED.MANIFEST
^C:\FH\LEHRE\WS11-12\PROGRAMMIEREN 3\LÖSUNGEN\WOCHE06\AUFGABE32-KETTE\DEBUG\AUFGABE32-KETTE.EXE.INTERMEDIATE.MANIFEST
C:\FH\LEHRE\WS11-12\PROGRAMMIEREN 3\LöSUNGEN\WOCHE06\AUFGABE32-KETTE\DEBUG\AUFGABE32-KETTE.EXE.EMBED.MANIFEST
