^C:\FH\LEHRE\WS14-15\PROGRAMMIEREN-3\LÖSUNGEN\WOCHE10\AUFGABE54-LISTE\LISTEMAIN.CPP
C:\FH\LEHRE\WS14-15\PROGRAMMIEREN-3\LöSUNGEN\WOCHE10\AUFGABE54-LISTE\DEBUG\VC120.PDB
C:\FH\LEHRE\WS14-15\PROGRAMMIEREN-3\LöSUNGEN\WOCHE10\AUFGABE54-LISTE\DEBUG\VC120.IDB
C:\FH\LEHRE\WS14-15\PROGRAMMIEREN-3\LöSUNGEN\WOCHE10\AUFGABE54-LISTE\DEBUG\LISTEMAIN.OBJ
