^C:\FH\LEHRE\WS10-11\PROGRAMMIEREN 3\LÖSUNGEN\WOCHE04\AUFGABE25-POINT\DEBUG\AUFGABE25-POINT.EXE.INTERMEDIATE.MANIFEST
C:\FH\LEHRE\WS10-11\PROGRAMMIEREN 3\LöSUNGEN\WOCHE04\AUFGABE25-POINT\DEBUG\AUFGABE25-POINT.EXE.EMBED.MANIFEST
^C:\FH\LEHRE\WS11-12\PROGRAMMIEREN 3\LÖSUNGEN\WOCHE04\AUFGABE25-POINT\DEBUG\AUFGABE25-POINT.EXE.INTERMEDIATE.MANIFEST
