^C:\FH\LEHRE\WS15-16\PROGRAMMIEREN 3\LÖSUNGEN\WOCHE11\AUFGABE57-MAP\MAP.CPP
C:\FH\LEHRE\WS15-16\PROGRAMMIEREN 3\LöSUNGEN\WOCHE11\AUFGABE57-MAP\DEBUG\VC140.PDB
C:\FH\LEHRE\WS15-16\PROGRAMMIEREN 3\LöSUNGEN\WOCHE11\AUFGABE57-MAP\DEBUG\VC140.IDB
C:\FH\LEHRE\WS15-16\PROGRAMMIEREN 3\LöSUNGEN\WOCHE11\AUFGABE57-MAP\DEBUG\MAP.OBJ
