^C:\USERS\ASUS-WIN10-PRO\SOURCE\REPOS\CPPPROJECT\VERERBUNG\MAIN.CPP
C:\USERS\ASUS-WIN10-PRO\SOURCE\REPOS\CPPPROJECT\VERERBUNG\DEBUG\VC141.PDB
C:\USERS\ASUS-WIN10-PRO\SOURCE\REPOS\CPPPROJECT\VERERBUNG\DEBUG\VC141.IDB
C:\USERS\ASUS-WIN10-PRO\SOURCE\REPOS\CPPPROJECT\VERERBUNG\DEBUG\MAIN.OBJ
