^C:\FH\LEHRE\WS13-14\PROGRAMMIEREN 3\BEISPIELE\KAP10\TEMPLATES\DATUM.CPP|C:\FH\LEHRE\WS13-14\PROGRAMMIEREN 3\BEISPIELE\KAP10\TEMPLATES\VEKMAIN.CPP
C:\FH\LEHRE\WS13-14\PROGRAMMIEREN 3\BEISPIELE\KAP10\TEMPLATES\DEBUG\DATUM.OBJ
C:\FH\LEHRE\WS13-14\PROGRAMMIEREN 3\BEISPIELE\KAP10\TEMPLATES\DEBUG\VEKMAIN.OBJ
^C:\FH\LEHRE\WS13-14\PROGRAMMIEREN 3\BEISPIELE\KAP10\TEMPLATES\DATUM.CPP
C:\FH\LEHRE\WS13-14\PROGRAMMIEREN 3\BEISPIELE\KAP10\TEMPLATES\DEBUG\VC110.PDB
^C:\FH\LEHRE\WS13-14\PROGRAMMIEREN 3\BEISPIELE\KAP10\TEMPLATES\VEKMAIN.CPP
C:\FH\LEHRE\WS13-14\PROGRAMMIEREN 3\BEISPIELE\KAP10\TEMPLATES\DEBUG\VC110.PDB
C:\FH\LEHRE\WS13-14\PROGRAMMIEREN 3\BEISPIELE\KAP10\TEMPLATES\DEBUG\VEKMAIN.OBJ
