^C:\FH\LEHRE\WS12-13\PROGRAMMIEREN 3\BEISPIELE\KAP10\TEMPLATES\DEBUG\DATUM.OBJ|C:\FH\LEHRE\WS12-13\PROGRAMMIEREN 3\BEISPIELE\KAP10\TEMPLATES\DEBUG\VEKMAIN.OBJ
/OUT:"C:\FH\LEHRE\WS12-13\PROGRAMMIEREN 3\BEISPIELE\KAP10\DEBUG\04_TEMPLATES.EXE" /INCREMENTAL /NOLOGO kernel32.lib user32.lib gdi32.lib winspool.lib comdlg32.lib advapi32.lib shell32.lib ole32.lib oleaut32.lib uuid.lib odbc32.lib odbccp32.lib /MANIFEST /MANIFESTUAC:"level='asInvoker' uiAccess='false'" /manifest:embed /DEBUG /PDB:"C:\FH\LEHRE\WS12-13\PROGRAMMIEREN 3\BEISPIELE\KAP10\DEBUG\04_TEMPLATES.PDB" /SUBSYSTEM:CONSOLE /TLBID:1 /DYNAMICBASE:NO /IMPLIB:"C:\FH\LEHRE\WS12-13\PROGRAMMIEREN 3\BEISPIELE\KAP10\DEBUG\04_TEMPLATES.LIB" /MACHINE:X86 /SAFESEH DEBUG\DATUM.OBJDEBUG\VEKMAIN.OBJ
^C:\FH\LEHRE\WS13-14\PROGRAMMIEREN 3\BEISPIELE\KAP10\TEMPLATES\DEBUG\DATUM.OBJ|C:\FH\LEHRE\WS13-14\PROGRAMMIEREN 3\BEISPIELE\KAP10\TEMPLATES\DEBUG\VEKMAIN.OBJ
/OUT:"C:\FH\LEHRE\WS13-14\PROGRAMMIEREN 3\BEISPIELE\KAP10\DEBUG\04_TEMPLATES.EXE" /INCREMENTAL /NOLOGO kernel32.lib user32.lib gdi32.lib winspool.lib comdlg32.lib advapi32.lib shell32.lib ole32.lib oleaut32.lib uuid.lib odbc32.lib odbccp32.lib /MANIFEST /MANIFESTUAC:"level='asInvoker' uiAccess='false'" /manifest:embed /DEBUG /PDB:"C:\FH\LEHRE\WS13-14\PROGRAMMIEREN 3\BEISPIELE\KAP10\DEBUG\04_TEMPLATES.PDB" /SUBSYSTEM:CONSOLE /TLBID:1 /DYNAMICBASE:NO /IMPLIB:"C:\FH\LEHRE\WS13-14\PROGRAMMIEREN 3\BEISPIELE\KAP10\DEBUG\04_TEMPLATES.LIB" /MACHINE:X86 /SAFESEH DEBUG\DATUM.OBJDEBUG\VEKMAIN.OBJ
