﻿  Vekmain.cpp
c:\users\asus-win10-pro\source\beispiele\kap10\templates\vektor.hpp(101): warning C4018: "<": Konflikt zwischen "signed" und "unsigned"
  c:\users\asus-win10-pro\source\beispiele\kap10\templates\vektor.hpp(98): note: Bei der Kompilierung von Klasse Vorlage der void Vektor<Datum>::print(void) const-Memberfunktion
  c:\users\asus-win10-pro\source\beispiele\kap10\templates\vekmain.cpp(44): note: Siehe Verweis auf die Instanziierung der gerade kompilierten Funktions-Vorlage "void Vektor<Datum>::print(void) const".
  c:\users\asus-win10-pro\source\beispiele\kap10\templates\vekmain.cpp(36): note: Siehe Verweis auf die Klasse Vorlage-Instanziierung "Vektor<Datum>", die kompiliert wird.
  Datum.cpp
c:\users\asus-win10-pro\source\beispiele\kap10\templates\datum.cpp(63): warning C4018: ">": Konflikt zwischen "signed" und "unsigned"
c:\users\asus-win10-pro\source\beispiele\kap10\templates\datum.cpp(80): warning C4996: 'localtime': This function or variable may be unsafe. Consider using localtime_s instead. To disable deprecation, use _CRT_SECURE_NO_WARNINGS. See online help for details.
  c:\program files (x86)\windows kits\10\include\10.0.16299.0\ucrt\time.h(505): note: Siehe Deklaration von "localtime"
  Code wird generiert...
Datum.obj : warning LNK4075: /EDITANDCONTINUE wird aufgrund der Angabe von /SAFESEH ignoriert.
  Templates.vcxproj -> C:\Users\ASUS-WIN10-PRO\source\Beispiele\Kap10\Debug\04_Templates.exe
