^C:\FH\LEHRE\WS10-11\PROGRAMMIEREN 3\BEISPIELE\KAP05\DETERMINANTE\RELEASE\DETERMINANTE.OBJ
C:\FH\LEHRE\WS10-11\PROGRAMMIEREN 3\BEISPIELE\KAP05\RELEASE\DETERMINANTE.EXE
C:\FH\LEHRE\WS10-11\PROGRAMMIEREN 3\BEISPIELE\KAP05\DETERMINANTE\RELEASE\DETERMINANTE.EXE.INTERMEDIATE.MANIFEST
C:\FH\LEHRE\WS10-11\PROGRAMMIEREN 3\BEISPIELE\KAP05\RELEASE\DETERMINANTE.PDB
