^C:\USERS\ASUS-WIN10-PRO\SOURCE\REPOS\CPPPROJECT\AUFGABE53\DEBUG\MAIN.OBJ
C:\USERS\ASUS-WIN10-PRO\SOURCE\REPOS\CPPPROJECT\DEBUG\AUFGABE53.EXE
C:\USERS\ASUS-WIN10-PRO\SOURCE\REPOS\CPPPROJECT\DEBUG\AUFGABE53.ILK
C:\USERS\ASUS-WIN10-PRO\SOURCE\REPOS\CPPPROJECT\DEBUG\AUFGABE53.PDB
