^C:\FH\LEHRE\WS14-15\PROGRAMMIEREN-3\LÖSUNGEN\WOCHE07\AUFGABE41-HELLOWORLD\HELLOWORLD.CPP
C:\FH\LEHRE\WS14-15\PROGRAMMIEREN-3\LöSUNGEN\WOCHE07\AUFGABE41-HELLOWORLD\DEBUG\VC120.PDB
C:\FH\LEHRE\WS14-15\PROGRAMMIEREN-3\LöSUNGEN\WOCHE07\AUFGABE41-HELLOWORLD\DEBUG\VC120.IDB
C:\FH\LEHRE\WS14-15\PROGRAMMIEREN-3\LöSUNGEN\WOCHE07\AUFGABE41-HELLOWORLD\DEBUG\HELLOWORLD.OBJ
