c:\fh\lehre\ws14-15\programmieren-3\beispiele\kap05\cpp11\debug\vc120.pdb
c:\fh\lehre\ws16-17\programmieren 3\beispiele\kap05\cpp11\debug\vc140.pdb
c:\fh\lehre\ws16-17\programmieren 3\beispiele\kap05\cpp11\debug\vc140.idb
c:\fh\lehre\ws16-17\programmieren 3\beispiele\kap05\cpp11\debug\auto.obj
c:\fh\lehre\ws16-17\programmieren 3\beispiele\kap05\cpp11\debug\lambdaexamples.obj
c:\fh\lehre\ws16-17\programmieren 3\beispiele\kap05\cpp11\debug\newincpp.obj
c:\fh\lehre\ws16-17\programmieren 3\beispiele\kap05\cpp11\debug\nullptr.obj
c:\fh\lehre\ws16-17\programmieren 3\beispiele\kap05\cpp11\debug\staticassert.obj
c:\fh\lehre\ws16-17\programmieren 3\beispiele\kap05\cpp11\debug\stdafx.obj
c:\fh\lehre\ws16-17\programmieren 3\beispiele\kap05\cpp11\debug\decltype.obj
c:\fh\lehre\ws14-15\programmieren-3\beispiele\kap05\debug\08-newincpp11.ilk
c:\fh\lehre\ws14-15\programmieren-3\beispiele\kap05\debug\08-newincpp11.exe
c:\fh\lehre\ws14-15\programmieren-3\beispiele\kap05\debug\08-newincpp11.pdb
c:\fh\lehre\ws16-17\programmieren 3\beispiele\kap05\debug\08-newincpp11.ilk
c:\fh\lehre\ws16-17\programmieren 3\beispiele\kap05\debug\08-newincpp11.exe
c:\fh\lehre\ws16-17\programmieren 3\beispiele\kap05\debug\08-newincpp11.pdb
c:\fh\lehre\ws17-18\programmieren3\beispiele\kap05\cpp11\debug\auto.obj
c:\fh\lehre\ws17-18\programmieren3\beispiele\kap05\cpp11\debug\decltype.obj
c:\fh\lehre\ws17-18\programmieren3\beispiele\kap05\cpp11\debug\lambdaexamples.obj
c:\fh\lehre\ws17-18\programmieren3\beispiele\kap05\cpp11\debug\newincpp.obj
c:\fh\lehre\ws17-18\programmieren3\beispiele\kap05\cpp11\debug\nullptr.obj
c:\fh\lehre\ws17-18\programmieren3\beispiele\kap05\cpp11\debug\staticassert.obj
c:\fh\lehre\ws17-18\programmieren3\beispiele\kap05\cpp11\debug\stdafx.obj
c:\fh\lehre\ws17-18\programmieren3\beispiele\kap05\cpp11\debug\vc120.idb
c:\fh\lehre\ws17-18\programmieren3\beispiele\kap05\cpp11\debug\vc140.idb
c:\fh\lehre\ws17-18\programmieren3\beispiele\kap05\cpp11\debug\vc120.pdb
c:\fh\lehre\ws17-18\programmieren3\beispiele\kap05\cpp11\debug\vc140.pdb
c:\fh\lehre\ws17-18\programmieren3\beispiele\kap05\debug\08-newincpp11.pdb
c:\fh\lehre\ws17-18\programmieren3\beispiele\kap05\debug\08-newincpp11.exe
c:\fh\lehre\ws17-18\programmieren3\beispiele\kap05\debug\08-newincpp11.ilk
c:\fh\lehre\ws17-18\programmieren3\beispiele\kap05\cpp11\debug\08-newincpp11.tlog\cl.command.1.tlog
c:\fh\lehre\ws17-18\programmieren3\beispiele\kap05\cpp11\debug\08-newincpp11.tlog\cl.read.1.tlog
c:\fh\lehre\ws17-18\programmieren3\beispiele\kap05\cpp11\debug\08-newincpp11.tlog\cl.write.1.tlog
c:\fh\lehre\ws17-18\programmieren3\beispiele\kap05\cpp11\debug\08-newincpp11.tlog\link.command.1.tlog
c:\fh\lehre\ws17-18\programmieren3\beispiele\kap05\cpp11\debug\08-newincpp11.tlog\link.read.1.tlog
c:\fh\lehre\ws17-18\programmieren3\beispiele\kap05\cpp11\debug\08-newincpp11.tlog\link.write.1.tlog
