^C:\FH\LEHRE\WS11-12\PROGRAMMIEREN 3\BEISPIELE\KAP0607\VEKTOR\DEBUG\VEKTOR.EXE.INTERMEDIATE.MANIFEST
^C:\FH\LEHRE\WS11-12\PROGRAMMIEREN 3\BEISPIELE\KAP0607\VEKTOR\DEBUG\05-VEKTOR.EXE.INTERMEDIATE.MANIFEST
C:\FH\LEHRE\WS11-12\PROGRAMMIEREN 3\BEISPIELE\KAP0607\VEKTOR\DEBUG\05-VEKTOR.EXE.EMBED.MANIFEST
