#Command: "C:\Program Files (x86)\Microsoft Visual Studio\2017\Enterprise\VC\Tools\MSVC\14.11.25503\bin\HostX86\x86\link.exe" /ERRORREPORT:PROMPT @C:\Users\wie\AppData\Local\Temp\tmpd1114166dd6a4171b41d6edfb1e8863b.rsp
^C:\FH\LEHRE\WS17-18\PROGRAMMIEREN3\LÖSUNGEN\WOCHE02\AUFGABE10-RADIUS\DEBUG\KUGEL.OBJ
C:\FH\LEHRE\WS17-18\PROGRAMMIEREN3\LöSUNGEN\WOCHE02\DEBUG\AUFGABE10-RADIUS.PDB
