^C:\FH\LEHRE\WS10-11\PROGRAMMIEREN 3\BEISPIELE\KAP0607\GEOMETRIECONTAINER\CONTAINER.CPP
C:\FH\LEHRE\WS10-11\PROGRAMMIEREN 3\BEISPIELE\KAP0607\GEOMETRIECONTAINER\DEBUG\CONTAINER.OBJ
C:\FH\LEHRE\WS10-11\PROGRAMMIEREN 3\BEISPIELE\KAP0607\GEOMETRIECONTAINER\DEBUG\VC100.PDB
^C:\FH\LEHRE\WS11-12\PROGRAMMIEREN 3\BEISPIELE\KAP0607\GEOMETRIECONTAINER\CONTAINER.CPP
C:\FH\LEHRE\WS11-12\PROGRAMMIEREN 3\BEISPIELE\KAP0607\GEOMETRIECONTAINER\DEBUG\CONTAINER.OBJ
C:\FH\LEHRE\WS11-12\PROGRAMMIEREN 3\BEISPIELE\KAP0607\GEOMETRIECONTAINER\DEBUG\VC100.PDB
