^C:\FH\LEHRE\WS14-15\PROGRAMMIEREN-3\BEISPIELE\KAP12\05_BRUCH2\BRUCHTYP2.CPP
C:\FH\LEHRE\WS14-15\PROGRAMMIEREN-3\BEISPIELE\KAP12\05_BRUCH2\DEBUG\VC120.PDB
C:\FH\LEHRE\WS14-15\PROGRAMMIEREN-3\BEISPIELE\KAP12\05_BRUCH2\DEBUG\VC120.IDB
C:\FH\LEHRE\WS14-15\PROGRAMMIEREN-3\BEISPIELE\KAP12\05_BRUCH2\DEBUG\BRUCHTYP2.OBJ
