^C:\FH\LEHRE\WS16-17\PROGRAMMIEREN 3\LÖSUNGEN\WOCHE05\AUFGABE30-LAMBDA\LAMBDA.CPP
C:\FH\LEHRE\WS16-17\PROGRAMMIEREN 3\LöSUNGEN\WOCHE05\AUFGABE30-LAMBDA\DEBUG\VC140.PDB
C:\FH\LEHRE\WS16-17\PROGRAMMIEREN 3\LöSUNGEN\WOCHE05\AUFGABE30-LAMBDA\DEBUG\VC140.IDB
C:\FH\LEHRE\WS16-17\PROGRAMMIEREN 3\LöSUNGEN\WOCHE05\AUFGABE30-LAMBDA\DEBUG\LAMBDA.OBJ
^C:\FH\LEHRE\WS17-18\PROGRAMMIEREN3\LÖSUNGEN\WOCHE05\AUFGABE30-LAMBDA\LAMBDA.CPP
C:\FH\LEHRE\WS17-18\PROGRAMMIEREN3\LöSUNGEN\WOCHE05\AUFGABE30-LAMBDA\DEBUG\VC141.PDB
C:\FH\LEHRE\WS17-18\PROGRAMMIEREN3\LöSUNGEN\WOCHE05\AUFGABE30-LAMBDA\DEBUG\VC141.IDB
C:\FH\LEHRE\WS17-18\PROGRAMMIEREN3\LöSUNGEN\WOCHE05\AUFGABE30-LAMBDA\DEBUG\LAMBDA.OBJ
