^C:\FH\LEHRE\WS11-12\PROGRAMMIEREN 3\BEISPIELE\KAP0607\KLASSENMETHODEN\DEBUG\03-KLASSENMETHODEN.EXE.EMBED.MANIFEST.RES|C:\FH\LEHRE\WS11-12\PROGRAMMIEREN 3\BEISPIELE\KAP0607\KLASSENMETHODEN\DEBUG\STAMETHO.OBJ
C:\PROGRAM FILES (X86)\MICROSOFT VISUAL STUDIO 10.0\VC\BIN\LINK.EXE
C:\PROGRAM FILES (X86)\MICROSOFT SDKS\WINDOWS\V7.0A\LIB\KERNEL32.LIB
C:\PROGRAM FILES (X86)\MICROSOFT SDKS\WINDOWS\V7.0A\LIB\USER32.LIB
C:\PROGRAM FILES (X86)\MICROSOFT SDKS\WINDOWS\V7.0A\LIB\GDI32.LIB
C:\PROGRAM FILES (X86)\MICROSOFT SDKS\WINDOWS\V7.0A\LIB\WINSPOOL.LIB
C:\PROGRAM FILES (X86)\MICROSOFT SDKS\WINDOWS\V7.0A\LIB\COMDLG32.LIB
C:\PROGRAM FILES (X86)\MICROSOFT SDKS\WINDOWS\V7.0A\LIB\ADVAPI32.LIB
C:\PROGRAM FILES (X86)\MICROSOFT SDKS\WINDOWS\V7.0A\LIB\SHELL32.LIB
C:\PROGRAM FILES (X86)\MICROSOFT SDKS\WINDOWS\V7.0A\LIB\OLE32.LIB
C:\PROGRAM FILES (X86)\MICROSOFT SDKS\WINDOWS\V7.0A\LIB\OLEAUT32.LIB
C:\PROGRAM FILES (X86)\MICROSOFT SDKS\WINDOWS\V7.0A\LIB\UUID.LIB
C:\PROGRAM FILES (X86)\MICROSOFT SDKS\WINDOWS\V7.0A\LIB\ODBC32.LIB
C:\PROGRAM FILES (X86)\MICROSOFT SDKS\WINDOWS\V7.0A\LIB\ODBCCP32.LIB
C:\FH\LEHRE\WS11-12\PROGRAMMIEREN 3\BEISPIELE\KAP0607\KLASSENMETHODEN\DEBUG\03-KLASSENMETHODEN.EXE.EMBED.MANIFEST.RES
C:\FH\LEHRE\WS11-12\PROGRAMMIEREN 3\BEISPIELE\KAP0607\KLASSENMETHODEN\DEBUG\STAMETHO.OBJ
C:\WINDOWS\SYSTEM32\TZRES.DLL
C:\FH\LEHRE\WS11-12\PROGRAMMIEREN 3\BEISPIELE\KAP0607\DEBUG\03-KLASSENMETHODEN.EXE
C:\FH\LEHRE\WS11-12\PROGRAMMIEREN 3\BEISPIELE\KAP0607\DEBUG\03-KLASSENMETHODEN.PDB
C:\WINDOWS\GLOBALIZATION\SORTING\SORTDEFAULT.NLS
C:\PROGRAM FILES (X86)\MICROSOFT VISUAL STUDIO 10.0\VC\LIB\MSVCPRTD.LIB
C:\PROGRAM FILES (X86)\MICROSOFT VISUAL STUDIO 10.0\VC\LIB\MSVCRTD.LIB
C:\PROGRAM FILES (X86)\MICROSOFT VISUAL STUDIO 10.0\VC\LIB\OLDNAMES.LIB
C:\PROGRAM FILES (X86)\MICROSOFT VISUAL STUDIO 10.0\VC\BIN\CVTRES.EXE
C:\WINDOWS\SYSTEM32\RSAENH.DLL
