^C:\FH\LEHRE\WS10-11\PROGRAMMIEREN 3\BEISPIELE\KAP0607\KLASSENMETHODEN\DEBUG\KLASSENMETHODEN.EXE.INTERMEDIATE.MANIFEST
C:\FH\LEHRE\WS10-11\PROGRAMMIEREN 3\BEISPIELE\KAP0607\KLASSENMETHODEN\DEBUG\KLASSENMETHODEN.EXE.EMBED.MANIFEST
^C:\FH\LEHRE\WS11-12\PROGRAMMIEREN 3\BEISPIELE\KAP0607\KLASSENMETHODEN\DEBUG\03-KLASSENMETHODEN.EXE.INTERMEDIATE.MANIFEST
C:\FH\LEHRE\WS11-12\PROGRAMMIEREN 3\BEISPIELE\KAP0607\KLASSENMETHODEN\DEBUG\03-KLASSENMETHODEN.EXE.EMBED.MANIFEST
