﻿Der Buildvorgang wurde am 16.12.2012 21:44:10 gestartet.
     1>Projekt "C:\FH\Lehre\WS12-13\Programmieren 3\Lösungen\Woche12\Woche12\Aufgabe62-bitvec\Aufgabe62-bitvec.vcxproj" auf Knoten "2", Rebuild Ziel(e).
     1>ClCompile:
         C:\Program Files (x86)\Microsoft Visual Studio 11.0\VC\bin\CL.exe /c /ZI /nologo /W3 /WX- /Od /Oy- /D WIN32 /D _DEBUG /D _CONSOLE /D _UNICODE /D UNICODE /Gm /EHsc /RTC1 /MDd /GS /fp:precise /Zc:wchar_t /Zc:forScope /Fo"Debug\\" /Fd"Debug\vc110.pdb" /Gd /TP /analyze- /errorReport:prompt bitvec.cpp
         bitvec.cpp
       Link:
         C:\Program Files (x86)\Microsoft Visual Studio 11.0\VC\bin\link.exe /ERRORREPORT:PROMPT /OUT:"C:\FH\Lehre\WS12-13\Programmieren 3\Lösungen\Woche12\Woche12\Debug\Aufgabe62-bitvec.exe" /INCREMENTAL /NOLOGO kernel32.lib user32.lib gdi32.lib winspool.lib comdlg32.lib advapi32.lib shell32.lib ole32.lib oleaut32.lib uuid.lib odbc32.lib odbccp32.lib /MANIFEST /MANIFESTUAC:"level='asInvoker' uiAccess='false'" /manifest:embed /DEBUG /PDB:"C:\FH\Lehre\WS12-13\Programmieren 3\Lösungen\Woche12\Woche12\Debug\Aufgabe62-bitvec.pdb" /SUBSYSTEM:CONSOLE /TLBID:1 /DYNAMICBASE /NXCOMPAT /IMPLIB:"C:\FH\Lehre\WS12-13\Programmieren 3\Lösungen\Woche12\Woche12\Debug\Aufgabe62-bitvec.lib" /MACHINE:X86 Debug\bitvec.obj
         Aufgabe62-bitvec.vcxproj -> C:\FH\Lehre\WS12-13\Programmieren 3\Lösungen\Woche12\Woche12\Debug\Aufgabe62-bitvec.exe
     1>Die Erstellung des Projekts "C:\FH\Lehre\WS12-13\Programmieren 3\Lösungen\Woche12\Woche12\Aufgabe62-bitvec\Aufgabe62-bitvec.vcxproj" ist abgeschlossen, Rebuild Ziel(e).

Build erfolgreich.

Verstrichene Zeit 00:00:02.76
