^C:\FH\LEHRE\WS10-11\PROGRAMMIEREN 3\BEISPIELE\KAP0607\FRIEND\FRIENDBSP.CPP
C:\FH\LEHRE\WS10-11\PROGRAMMIEREN 3\BEISPIELE\KAP0607\FRIEND\DEBUG\FRIENDBSP.OBJ
C:\FH\LEHRE\WS10-11\PROGRAMMIEREN 3\BEISPIELE\KAP0607\FRIEND\DEBUG\VC100.PDB
^C:\FH\LEHRE\WS11-12\PROGRAMMIEREN 3\BEISPIELE\KAP0607\FRIEND\FRIENDBSP.CPP
C:\FH\LEHRE\WS11-12\PROGRAMMIEREN 3\BEISPIELE\KAP0607\FRIEND\DEBUG\VC100.PDB
