^C:\FH\LEHRE\WS12-13\PROGRAMMIEREN 3\BEISPIELE\KAP11\SHARED_PTR\DEBUG\MAIN.OBJ
C:\FH\LEHRE\WS12-13\PROGRAMMIEREN 3\BEISPIELE\KAP11\DEBUG\09_SHARED_PTR.ILK
C:\FH\LEHRE\WS12-13\PROGRAMMIEREN 3\BEISPIELE\KAP11\DEBUG\09_SHARED_PTR.EXE
C:\FH\LEHRE\WS12-13\PROGRAMMIEREN 3\BEISPIELE\KAP11\DEBUG\09_SHARED_PTR.PDB
