^C:\USERS\ASUS-WIN10-PRO\SOURCE\REPOS\CPPPROJECT\CPPPROJECT\DEBUG\FOR_ALL.OBJ
C:\USERS\ASUS-WIN10-PRO\SOURCE\REPOS\CPPPROJECT\DEBUG\AUFGABE30.EXE
C:\USERS\ASUS-WIN10-PRO\SOURCE\REPOS\CPPPROJECT\DEBUG\AUFGABE30.ILK
C:\USERS\ASUS-WIN10-PRO\SOURCE\REPOS\CPPPROJECT\DEBUG\AUFGABE30.PDB
