^C:\USERS\ASUS-WIN10-PRO\SOURCE\REPOS\CPPPROJECT\MAIN.CPP\DEBUG\EMPLOYEE.OBJ|C:\USERS\ASUS-WIN10-PRO\SOURCE\REPOS\CPPPROJECT\MAIN.CPP\DEBUG\MAIN.OBJ
C:\USERS\ASUS-WIN10-PRO\SOURCE\REPOS\CPPPROJECT\DEBUG\AUFGABE37.EXE
C:\USERS\ASUS-WIN10-PRO\SOURCE\REPOS\CPPPROJECT\DEBUG\AUFGABE37.ILK
C:\USERS\ASUS-WIN10-PRO\SOURCE\REPOS\CPPPROJECT\DEBUG\AUFGABE37.PDB
