^C:\FH\LEHRE\WS10-11\PROGRAMMIEREN 3\LÖSUNGEN\WOCHE06\AUFGABE33-SPARSEVECTOR\DEBUG\AUFGABE33-SPARSEVECTOR.EXE.EMBED.MANIFEST.RES|C:\FH\LEHRE\WS10-11\PROGRAMMIEREN 3\LÖSUNGEN\WOCHE06\AUFGABE33-SPARSEVECTOR\DEBUG\SPARSEVECTOR.OBJ
C:\FH\LEHRE\WS10-11\PROGRAMMIEREN 3\LöSUNGEN\WOCHE06\DEBUG\AUFGABE33-SPARSEVECTOR.ILK
C:\FH\LEHRE\WS10-11\PROGRAMMIEREN 3\LöSUNGEN\WOCHE06\DEBUG\AUFGABE33-SPARSEVECTOR.EXE
C:\FH\LEHRE\WS10-11\PROGRAMMIEREN 3\LöSUNGEN\WOCHE06\AUFGABE33-SPARSEVECTOR\DEBUG\AUFGABE33-SPARSEVECTOR.EXE.INTERMEDIATE.MANIFEST
C:\FH\LEHRE\WS10-11\PROGRAMMIEREN 3\LÖSUNGEN\WOCHE06\DEBUG\AUFGABE33-SPARSEVECTOR.PDB
^C:\FH\LEHRE\WS11-12\PROGRAMMIEREN 3\LÖSUNGEN\WOCHE06\AUFGABE33-SPARSEVECTOR\DEBUG\AUFGABE33-SPARSEVECTOR.EXE.EMBED.MANIFEST.RES|C:\FH\LEHRE\WS11-12\PROGRAMMIEREN 3\LÖSUNGEN\WOCHE06\AUFGABE33-SPARSEVECTOR\DEBUG\SPARSEVECTOR.OBJ
C:\FH\LEHRE\WS11-12\PROGRAMMIEREN 3\LöSUNGEN\WOCHE06\DEBUG\AUFGABE33-SPARSEVECTOR.ILK
C:\FH\LEHRE\WS11-12\PROGRAMMIEREN 3\LöSUNGEN\WOCHE06\DEBUG\AUFGABE33-SPARSEVECTOR.EXE
C:\FH\LEHRE\WS11-12\PROGRAMMIEREN 3\LöSUNGEN\WOCHE06\AUFGABE33-SPARSEVECTOR\DEBUG\AUFGABE33-SPARSEVECTOR.EXE.INTERMEDIATE.MANIFEST
C:\FH\LEHRE\WS11-12\PROGRAMMIEREN 3\LÖSUNGEN\WOCHE06\DEBUG\AUFGABE33-SPARSEVECTOR.PDB
