^C:\FH\LEHRE\WS10-11\PROGRAMMIEREN 3\LÖSUNGEN\WOCHE06\AUFGABE33-SPARSEVECTOR\DEBUG\AUFGABE33-SPARSEVECTOR_MANIFEST.RC
C:\FH\LEHRE\WS10-11\PROGRAMMIEREN 3\LöSUNGEN\WOCHE06\AUFGABE33-SPARSEVECTOR\DEBUG\AUFGABE33-SPARSEVECTOR.EXE.EMBED.MANIFEST.RES
^C:\FH\LEHRE\WS11-12\PROGRAMMIEREN 3\LÖSUNGEN\WOCHE06\AUFGABE33-SPARSEVECTOR\DEBUG\AUFGABE33-SPARSEVECTOR_MANIFEST.RC
C:\FH\LEHRE\WS11-12\PROGRAMMIEREN 3\LöSUNGEN\WOCHE06\AUFGABE33-SPARSEVECTOR\DEBUG\AUFGABE33-SPARSEVECTOR.EXE.EMBED.MANIFEST.RES
