^C:\USERS\ASUS-WIN10-PRO\SOURCE\KLAUSURAUFGABEN\TEMPLATEREKRUSIV\MAIN.CPP
C:\USERS\ASUS-WIN10-PRO\SOURCE\KLAUSURAUFGABEN\TEMPLATEREKRUSIV\DEBUG\VC141.PDB
C:\USERS\ASUS-WIN10-PRO\SOURCE\KLAUSURAUFGABEN\TEMPLATEREKRUSIV\DEBUG\VC141.IDB
C:\USERS\ASUS-WIN10-PRO\SOURCE\KLAUSURAUFGABEN\TEMPLATEREKRUSIV\DEBUG\MAIN.OBJ
