^C:\FH\LEHRE\WS14-15\PROGRAMMIEREN-3\LÖSUNGEN\WOCHE08\AUFGABE43-SINGLETON\DEBUG\SINGLETON.OBJ
C:\FH\LEHRE\WS14-15\PROGRAMMIEREN-3\LöSUNGEN\WOCHE08\DEBUG\AUFGABE43-SINGLETON.ILK
C:\FH\LEHRE\WS14-15\PROGRAMMIEREN-3\LöSUNGEN\WOCHE08\DEBUG\AUFGABE43-SINGLETON.EXE
C:\FH\LEHRE\WS14-15\PROGRAMMIEREN-3\LÖSUNGEN\WOCHE08\DEBUG\AUFGABE43-SINGLETON.PDB
^C:\FH\LEHRE\WS15-16\PROGRAMMIEREN 3\LÖSUNGEN\WOCHE08\AUFGABE43-SINGLETON\DEBUG\SINGLETON.OBJ
C:\FH\LEHRE\WS15-16\PROGRAMMIEREN 3\LöSUNGEN\WOCHE08\DEBUG\AUFGABE43-SINGLETON.ILK
C:\FH\LEHRE\WS15-16\PROGRAMMIEREN 3\LöSUNGEN\WOCHE08\DEBUG\AUFGABE43-SINGLETON.EXE
C:\FH\LEHRE\WS15-16\PROGRAMMIEREN 3\LÖSUNGEN\WOCHE08\DEBUG\AUFGABE43-SINGLETON.PDB
^C:\FH\LEHRE\WS16-17\PROGRAMMIEREN 3\LÖSUNGEN\WOCHE08\AUFGABE43-SINGLETON\DEBUG\SINGLETON.OBJ
C:\FH\LEHRE\WS16-17\PROGRAMMIEREN 3\LöSUNGEN\WOCHE08\DEBUG\AUFGABE43-SINGLETON.ILK
C:\FH\LEHRE\WS16-17\PROGRAMMIEREN 3\LöSUNGEN\WOCHE08\DEBUG\AUFGABE43-SINGLETON.EXE
C:\FH\LEHRE\WS16-17\PROGRAMMIEREN 3\LÖSUNGEN\WOCHE08\DEBUG\AUFGABE43-SINGLETON.PDB
^C:\FH\LEHRE\WS17-18\PROGRAMMIEREN3\LÖSUNGEN\WOCHE08\AUFGABE43-SINGLETON\DEBUG\SINGLETON.OBJ
C:\FH\LEHRE\WS17-18\PROGRAMMIEREN3\LöSUNGEN\WOCHE08\DEBUG\AUFGABE43-SINGLETON.EXE
C:\FH\LEHRE\WS17-18\PROGRAMMIEREN3\LöSUNGEN\WOCHE08\DEBUG\AUFGABE43-SINGLETON.ILK
C:\FH\LEHRE\WS17-18\PROGRAMMIEREN3\LÖSUNGEN\WOCHE08\DEBUG\AUFGABE43-SINGLETON.PDB
