^C:\FH\LEHRE\WS15-16\PROGRAMMIEREN 3\LÖSUNGEN\WOCHE05\AUFGABE28-GLEITPUNKT\GLEITPUNKT.C
C:\FH\LEHRE\WS15-16\PROGRAMMIEREN 3\LöSUNGEN\WOCHE05\AUFGABE28-GLEITPUNKT\DEBUG\VC120.PDB
C:\FH\LEHRE\WS15-16\PROGRAMMIEREN 3\LöSUNGEN\WOCHE05\AUFGABE28-GLEITPUNKT\DEBUG\VC120.IDB
C:\FH\LEHRE\WS15-16\PROGRAMMIEREN 3\LöSUNGEN\WOCHE05\AUFGABE28-GLEITPUNKT\DEBUG\GLEITPUNKT.OBJ
^C:\FH\LEHRE\WS16-17\PROGRAMMIEREN 3\LÖSUNGEN\WOCHE05\AUFGABE28-GLEITPUNKT\GLEITPUNKT.C
C:\FH\LEHRE\WS16-17\PROGRAMMIEREN 3\LöSUNGEN\WOCHE05\AUFGABE28-GLEITPUNKT\DEBUG\VC140.PDB
C:\FH\LEHRE\WS16-17\PROGRAMMIEREN 3\LöSUNGEN\WOCHE05\AUFGABE28-GLEITPUNKT\DEBUG\VC140.IDB
C:\FH\LEHRE\WS16-17\PROGRAMMIEREN 3\LöSUNGEN\WOCHE05\AUFGABE28-GLEITPUNKT\DEBUG\GLEITPUNKT.OBJ
^C:\FH\LEHRE\WS17-18\PROGRAMMIEREN3\LÖSUNGEN\WOCHE05\AUFGABE28-GLEITPUNKT\GLEITPUNKT.C
C:\FH\LEHRE\WS17-18\PROGRAMMIEREN3\LöSUNGEN\WOCHE05\AUFGABE28-GLEITPUNKT\DEBUG\VC141.PDB
C:\FH\LEHRE\WS17-18\PROGRAMMIEREN3\LöSUNGEN\WOCHE05\AUFGABE28-GLEITPUNKT\DEBUG\VC141.IDB
C:\FH\LEHRE\WS17-18\PROGRAMMIEREN3\LöSUNGEN\WOCHE05\AUFGABE28-GLEITPUNKT\DEBUG\GLEITPUNKT.OBJ
