^C:\USERS\ASUS-WIN10-PRO\SOURCE\FORTGESCHRITTENE PROGRAMMIERUNG\AUFGABE17\DEBUG\MAIN.OBJ
C:\USERS\ASUS-WIN10-PRO\SOURCE\FORTGESCHRITTENE PROGRAMMIERUNG\DEBUG\AUFGABE17.ILK
C:\USERS\ASUS-WIN10-PRO\SOURCE\FORTGESCHRITTENE PROGRAMMIERUNG\DEBUG\AUFGABE17.EXE
C:\USERS\ASUS-WIN10-PRO\SOURCE\FORTGESCHRITTENE PROGRAMMIERUNG\DEBUG\AUFGABE17.PDB
