^C:\FH\LEHRE\WS13-14\PROGRAMMIEREN 3\LÖSUNGEN\WOCHE08\AUFGABE44-QUEUE\QUEUE.CPP
C:\FH\LEHRE\WS13-14\PROGRAMMIEREN 3\LöSUNGEN\WOCHE08\AUFGABE44-QUEUE\DEBUG\QUEUE.OBJ
C:\FH\LEHRE\WS13-14\PROGRAMMIEREN 3\LÖSUNGEN\WOCHE08\AUFGABE44-QUEUE\DEBUG\VC110.PDB
