^C:\FH\LEHRE\WS12-13\PROGRAMMIEREN 3\LÖSUNGEN\WOCHE10\AUFGABE54-LISTE\LISTEMAIN.CPP
C:\FH\LEHRE\WS12-13\PROGRAMMIEREN 3\LöSUNGEN\WOCHE10\AUFGABE54-LISTE\DEBUG\LISTEMAIN.OBJ
C:\FH\LEHRE\WS12-13\PROGRAMMIEREN 3\LÖSUNGEN\WOCHE10\AUFGABE54-LISTE\DEBUG\VC110.PDB
^C:\FH\LEHRE\WS13-14\PROGRAMMIEREN 3\LÖSUNGEN\WOCHE10\AUFGABE54-LISTE\LISTEMAIN.CPP
C:\FH\LEHRE\WS13-14\PROGRAMMIEREN 3\LöSUNGEN\WOCHE10\AUFGABE54-LISTE\DEBUG\LISTEMAIN.OBJ
C:\FH\LEHRE\WS13-14\PROGRAMMIEREN 3\LÖSUNGEN\WOCHE10\AUFGABE54-LISTE\DEBUG\VC110.PDB
