^C:\FH\LEHRE\WS10-11\PROGRAMMIEREN 3\LÖSUNGEN\WOCHE04\AUFGABE20-STRCPY\DEBUG\AUFGABE20-STRCPY_MANIFEST.RC
C:\FH\LEHRE\WS10-11\PROGRAMMIEREN 3\LöSUNGEN\WOCHE04\AUFGABE20-STRCPY\DEBUG\AUFGABE20-STRCPY.EXE.EMBED.MANIFEST.RES
^C:\FH\LEHRE\WS11-12\PROGRAMMIEREN 3\LÖSUNGEN\WOCHE04\AUFGABE20-STRCPY\DEBUG\AUFGABE20-STRCPY_MANIFEST.RC
C:\FH\LEHRE\WS11-12\PROGRAMMIEREN 3\LöSUNGEN\WOCHE04\AUFGABE20-STRCPY\DEBUG\AUFGABE20-STRCPY.EXE.EMBED.MANIFEST.RES
