^C:\FH\LEHRE\WS13-14\PROGRAMMIEREN 3\BEISPIELE\KAP10\FUNCTEMPL_SPEZIALISIERUNG\DEBUG\FUNCTEMPL_SPEZ.OBJ
C:\FH\LEHRE\WS13-14\PROGRAMMIEREN 3\BEISPIELE\KAP10\DEBUG\02_FUNCTEMPL_SPEZIALISIERUNG.ILK
C:\FH\LEHRE\WS13-14\PROGRAMMIEREN 3\BEISPIELE\KAP10\DEBUG\02_FUNCTEMPL_SPEZIALISIERUNG.EXE
C:\FH\LEHRE\WS13-14\PROGRAMMIEREN 3\BEISPIELE\KAP10\DEBUG\02_FUNCTEMPL_SPEZIALISIERUNG.PDB
