^C:\USERS\ASUS-WIN10-PRO\SOURCE\REPOS\CPPPROJECT\AUFGABE34\DEBUG\MAIN.OBJ
C:\USERS\ASUS-WIN10-PRO\SOURCE\REPOS\CPPPROJECT\DEBUG\AUFGABE34___.EXE
C:\USERS\ASUS-WIN10-PRO\SOURCE\REPOS\CPPPROJECT\DEBUG\AUFGABE34___.ILK
C:\USERS\ASUS-WIN10-PRO\SOURCE\REPOS\CPPPROJECT\DEBUG\AUFGABE34___.PDB
