^C:\FH\LEHRE\WS12-13\PROGRAMMIEREN 3\LÖSUNGEN\WOCHE13\AUFGABE64-HTMLWEG\DEBUG\AUFGABE64-HTMLWEG.EXE.EMBED.MANIFEST.RES|C:\FH\LEHRE\WS12-13\PROGRAMMIEREN 3\LÖSUNGEN\WOCHE13\AUFGABE64-HTMLWEG\DEBUG\HTMLWEG.OBJ
C:\PROGRAM FILES (X86)\MICROSOFT VISUAL STUDIO 10.0\VC\BIN\LINK.EXE
C:\PROGRAM FILES (X86)\MICROSOFT SDKS\WINDOWS\V7.0A\LIB\KERNEL32.LIB
C:\PROGRAM FILES (X86)\MICROSOFT SDKS\WINDOWS\V7.0A\LIB\USER32.LIB
C:\PROGRAM FILES (X86)\MICROSOFT SDKS\WINDOWS\V7.0A\LIB\GDI32.LIB
C:\PROGRAM FILES (X86)\MICROSOFT SDKS\WINDOWS\V7.0A\LIB\WINSPOOL.LIB
C:\PROGRAM FILES (X86)\MICROSOFT SDKS\WINDOWS\V7.0A\LIB\COMDLG32.LIB
C:\PROGRAM FILES (X86)\MICROSOFT SDKS\WINDOWS\V7.0A\LIB\ADVAPI32.LIB
C:\PROGRAM FILES (X86)\MICROSOFT SDKS\WINDOWS\V7.0A\LIB\SHELL32.LIB
C:\PROGRAM FILES (X86)\MICROSOFT SDKS\WINDOWS\V7.0A\LIB\OLE32.LIB
C:\PROGRAM FILES (X86)\MICROSOFT SDKS\WINDOWS\V7.0A\LIB\OLEAUT32.LIB
C:\PROGRAM FILES (X86)\MICROSOFT SDKS\WINDOWS\V7.0A\LIB\UUID.LIB
C:\PROGRAM FILES (X86)\MICROSOFT SDKS\WINDOWS\V7.0A\LIB\ODBC32.LIB
C:\PROGRAM FILES (X86)\MICROSOFT SDKS\WINDOWS\V7.0A\LIB\ODBCCP32.LIB
C:\FH\LEHRE\WS12-13\PROGRAMMIEREN 3\LöSUNGEN\WOCHE13\AUFGABE64-HTMLWEG\DEBUG\AUFGABE64-HTMLWEG.EXE.EMBED.MANIFEST.RES
C:\FH\LEHRE\WS12-13\PROGRAMMIEREN 3\LöSUNGEN\WOCHE13\AUFGABE64-HTMLWEG\DEBUG\HTMLWEG.OBJ
C:\WINDOWS\GLOBALIZATION\SORTING\SORTDEFAULT.NLS
C:\PROGRAM FILES (X86)\MICROSOFT VISUAL STUDIO 10.0\VC\LIB\MSVCPRTD.LIB
C:\PROGRAM FILES (X86)\MICROSOFT VISUAL STUDIO 10.0\VC\LIB\MSVCRTD.LIB
C:\PROGRAM FILES (X86)\MICROSOFT VISUAL STUDIO 10.0\VC\LIB\OLDNAMES.LIB
C:\PROGRAM FILES (X86)\MICROSOFT VISUAL STUDIO 10.0\VC\BIN\CVTRES.EXE
C:\WINDOWS\SYSTEM32\TZRES.DLL
C:\FH\LEHRE\WS12-13\PROGRAMMIEREN 3\LöSUNGEN\WOCHE13\DEBUG\AUFGABE64-HTMLWEG.EXE
C:\WINDOWS\SYSTEM32\RSAENH.DLL
C:\FH\LEHRE\WS12-13\PROGRAMMIEREN 3\LöSUNGEN\WOCHE13\DEBUG\AUFGABE64-HTMLWEG.ILK
C:\FH\LEHRE\WS12-13\PROGRAMMIEREN 3\LöSUNGEN\WOCHE13\DEBUG\AUFGABE64-HTMLWEG.PDB
