^C:\FH\LEHRE\WS14-15\PROGRAMMIEREN-3\BEISPIELE\KAP0809\VERERBUNG\DEBUG\MAIN.OBJ
C:\FH\LEHRE\WS14-15\PROGRAMMIEREN-3\BEISPIELE\KAP0809\DEBUG\01-VERERBUNG.ILK
C:\FH\LEHRE\WS14-15\PROGRAMMIEREN-3\BEISPIELE\KAP0809\DEBUG\01-VERERBUNG.EXE
C:\FH\LEHRE\WS14-15\PROGRAMMIEREN-3\BEISPIELE\KAP0809\DEBUG\01-VERERBUNG.PDB
